3.375741999999999909e-01 -3.381383000000000028e-01 5.902471999999999719e-01 1.017416000000000015e-01 5.766334000000000043e-02 7.649322000000000066e-02 2.610912000000000233e-01 9.432319000000000120e-02 -1.269733000000000112e-01 4.710329999999999795e-01 -2.197045999999999999e-01 1.083492000000000066e-01 5.244019999999999931e-02 -2.596235000000000070e-01 2.243045999999999929e-01 -3.767271999999999843e-01 -3.520691000000000237e-01 -5.440951000000000537e-01 3.339077999999999768e-01 3.649750000000000216e-02 1.089486000000000065e-01 3.108029999999999959e-01 1.193690000000000029e-01 3.020926999999999987e-02 -3.406619999999999787e-02 5.751674999999999843e-02 2.632959999999999745e-01 3.250957999999999903e-01 4.523586999999999747e-02 7.988627000000000367e-01 -2.022822999999999982e-01 4.510435000000000139e-02 -2.911232000000000264e-01 5.222082000000000113e-02 4.591592999999999924e-01 2.576130999999999838e-01 -2.259510000000000129e-01 -2.900176999999999894e-01 -2.013581000000000121e-01 -1.431292000000000120e-01 -3.730177999999999966e-02 -5.871838000000000057e-02 3.827317000000000080e-01 3.327767999999999837e-01 9.990042000000000366e-02 -3.022298999999999958e-01 1.968711999999999893e-02 2.448342000000000018e-01 -3.875089999999999923e-01 2.320288000000000073e-01 -4.223103000000000273e-01 1.552033999999999914e-01 1.912819000000000047e-01 -3.145427000000000084e-01 1.988126000000000060e-01 2.407360000000000055e-02 -5.748693000000000275e-01 5.647526000000000490e-01 -2.693929999999999936e-01 5.595552999999999777e-01 -1.794033999999999907e-02
7.353123999999999771e-02 -1.519236999999999949e-01 -3.200551999999999842e-01 3.691602999999999968e-01 -1.543870999999999993e-01 1.794644999999999990e-01 -4.491415000000000268e-01 -2.052958000000000005e-01 -1.159173000000000009e-01 -9.571079999999999866e-02 9.547690999999999817e-02 7.004972999999999894e-01 6.651399999999999535e-01 1.445944999999999869e-01 -2.933337999999999779e-01 2.465423999999999949e-01 2.025058999999999887e-01 3.031975000000000087e-01 -1.515539999999999943e-01 3.496118999999999755e-01 -9.856631999999999894e-02 6.639251999999999931e-01 6.711236000000000423e-01 -2.620276999999999745e-01 2.339218000000000131e-01 3.310431999999999819e-01 7.705336000000000407e-01 1.997865000000000058e-01 4.714092999999999756e-01 1.968569000000000013e-01 2.783171999999999868e-01 6.485193999999999681e-02 6.006205999999999490e-01 1.360721000000000014e-01 4.645271000000000261e-01 4.712759000000000253e-01 3.767502999999999824e-01 4.191186000000000078e-01 -3.972665000000000224e-01 1.239158999999999955e-01 3.285506999999999733e-01 3.291641000000000150e-01 5.658573000000000075e-02 1.749157000000000073e-01 -3.094258999999999898e-02 6.335311999999999888e-02 -3.354505999999999877e-01 -1.737412999999999874e-01 1.451285999999999965e-01 -4.958930999999999756e-01 3.190769999999999995e-01 -1.636336999999999930e-01 2.598520999999999748e-01 1.082856999999999986e-01 6.706467000000000678e-02 -2.832346999999999990e-02 4.372390999999999917e-01 -3.609131999999999896e-01 7.873890000000000056e-02 4.500025999999999748e-01 9.537302999999999753e-02
1.070694999999999980e-01 6.527981999999999951e-01 3.785001000000000337e-02 -1.642493999999999899e-01 2.552406999999999870e-01 2.988376999999999839e-01 -1.584132000000000040e-01 -7.104923999999999962e-02 2.378598000000000101e-01 5.079282999999999992e-01 6.009248999999999841e-02 -1.151921000000000021e-02 1.629977999999999982e-01 -3.739194000000000129e-01 -1.548926999999999943e-01 3.575232999999999883e-02 -5.988732000000000083e-02 -1.021775999999999934e-01 9.466442999999999941e-01 -1.628798000000000051e-02 -1.366108000000000045e-01 6.411139999999999617e-01 3.353102000000000027e-01 -1.740160000000000040e-01 1.494916999999999947e-02 5.904795999999999934e-01 1.445493999999999946e-01 6.142944999999999656e-01 4.973595000000000099e-01 6.131010999999999544e-01 2.440526000000000084e-01 7.003065000000000540e-01 1.448837000000000041e-01 7.840729000000000448e-02 -2.438008999999999871e-01 3.864751000000000158e-01 -1.666407000000000027e-01 2.321612000000000120e-01 8.202850999999999893e-02 -2.131834999999999980e-01 3.483187999999999840e-01 -3.355400000000000049e-01 -1.039838000000000012e-01 3.015982999999999858e-01 3.707342000000000137e-01 3.863868999999999776e-01 -1.967579999999999885e-01 -3.038117000000000179e-01 1.666033000000000097e-01 -6.383494000000000668e-02 -5.126043999999999740e-02 3.976710999999999996e-01 7.927122999999999808e-02 -3.908571999999999741e-02 2.909732999999999903e-01 -1.310972999999999999e-01 1.650465999999999878e-01 2.540761999999999743e-01 -1.582626000000000033e-01 1.185329999999999995e-01 -4.877633000000000107e-01
8.029321000000000375e-02 2.045156000000000057e-02 9.849479999999999347e-02 -2.702623000000000109e-01 2.824742000000000086e-01 3.940470999999999835e-01 4.154887999999999915e-01 -2.211310000000000012e-02 2.053915000000000046e-01 7.421299000000000090e-01 1.281144999999999978e+00 -1.804193000000000047e-01 -1.083782999999999969e-01 -4.679065999999999781e-02 1.011968000000000069e-02 2.169852999999999921e-01 6.034262999999999710e-01 -1.229278000000000037e-01 1.993465000000000167e-02 4.342033000000000142e-01 1.452671999999999991e-02 -3.422796999999999992e-03 -1.951298999999999950e-01 1.527062999999999893e-01 4.918067999999999884e-01 3.988122999999999668e-02 -1.051425999999999923e-02 -1.179971999999999965e-01 1.924165999999999932e-01 -2.694411999999999918e-01 -1.909540999999999877e-01 6.523072999999999892e-03 2.207272999999999874e-02 3.014333000000000151e-01 6.681538000000000199e-01 5.244782000000000055e-01 3.478703000000000212e-01 2.759387999999999841e-01 2.229277000000000064e-01 3.490983999999999754e-02 1.215230999999999950e-01 4.654640999999999917e-01 -1.711193000000000020e-01 4.440126999999999824e-01 7.040113000000000620e-02 7.466346000000000094e-02 6.356019000000000529e-01 1.524079000000000059e-02 -2.542997000000000174e-01 3.560723000000000082e-01 3.633987000000000189e-01 1.320922000000000068e-02 2.033762000000000070e-01 5.870851000000000264e-01 -1.622016000000000013e-01 5.501055999999999724e-01 4.209537999999999891e-01 6.913286000000000431e-02 1.645072999999999952e-01 1.989771999999999930e-01 4.741845000000000088e-02
-1.530013000000000067e-01 5.097357999999999750e-02 -3.441260999999999903e-01 1.502789999999999959e-01 3.345446999999999727e-01 4.896604999999999985e-01 2.720745999999999998e-01 -1.890850000000000170e-02 4.998577000000000159e-01 -1.537473000000000034e-01 1.543823000000000001e-01 3.130169999999999897e-01 -1.476700999999999986e-01 2.140408000000000033e-01 -6.713324999999999987e-01 2.221423999999999899e-01 -2.813097999999999987e-01 2.186197000000000001e-01 1.341608000000000037e-02 6.148392999999999775e-01 2.946845000000000159e-01 2.652139000000000024e-01 4.109335000000000071e-02 1.209845000000000059e+00 -4.904324000000000183e-02 1.678566999999999976e-01 -1.128466000000000052e-01 6.266868000000000438e-02 -1.347304000000000002e-01 4.950472000000000206e-01 -2.497631000000000157e-02 6.398700000000000498e-01 3.835458999999999952e-01 -3.090941999999999856e-01 2.567148000000000208e-01 8.839667000000000704e-03 2.488770999999999900e-01 1.170627000000000056e-01 -4.227341000000000015e-01 -8.079069999999999308e-02 1.956324999999999870e-01 -2.539235000000000103e-02 -1.457415999999999989e-01 1.459602000000000122e-01 2.755490999999999913e-01 3.401027999999999829e-01 -1.814629000000000103e-01 1.580925999999999998e-01 -5.077190000000000314e-01 -2.048243999999999898e-01 1.640821000000000085e-01 -2.171620999999999968e-01 4.336533000000000193e-01 -2.117341999999999835e-02 -3.853814999999999880e-01 6.904094999999999850e-03 5.606963000000000363e-01 1.570997000000000018e-02 1.473488000000000020e-01 6.110539000000000387e-01 4.385272000000000059e-01
1.758435999999999888e-01 1.604812999999999934e-01 7.095653000000000377e-02 5.107930000000000526e-01 4.335185999999999762e-01 -2.273681999999999925e-01 3.377897000000000260e-01 3.703461999999999726e-02 -5.483521999999999563e-01 -5.836091999999999669e-02 -1.039936999999999979e-02 1.425684999999999869e-01 -1.403065000000000007e-01 3.256340999999999819e-01 4.786838999999999955e-01 3.382910000000000084e-01 4.791582999999999815e-01 3.547993999999999870e-01 -1.543873000000000051e-01 7.265654000000000279e-01 7.154542000000000401e-01 4.111077000000000203e-01 1.876502999999999921e-01 -1.867600999999999983e-02 4.052670999999999912e-01 4.531410000000000160e-01 9.802151000000000614e-02 3.190451000000000259e-01 -5.578058999999999795e-02 3.810420999999999947e-01 -1.112844999999999945e-01 -2.683754999999999891e-01 -2.660276999999999781e-01 -1.582999999999999963e-01 -1.908017999999999936e-01 2.994352000000000125e-01 6.752388000000000279e-01 -1.827799999999999911e-02 -1.421766999999999892e-01 4.123253000000000335e-02 -4.323480000000000101e-01 -1.187938000000000015e-02 3.100298000000000220e-01 4.903737000000000235e-01 -3.658158000000000243e-01 3.566566999999999932e-01 -3.323792999999999800e-03 3.279007999999999923e-01 1.222967999999999972e-02 -3.472411999999999721e-02 3.822314999999999741e-02 3.901608999999999772e-01 2.463249000000000133e-01 3.453582000000000041e-01 -9.197953000000000379e-02 3.508696000000000037e-01 2.280145999999999822e-03 -3.118477000000000054e-01 1.411282000000000092e-01 4.186622999999999872e-01 -1.987192000000000125e-01
-1.502622000000000124e-01 -2.914758000000000071e-01 -2.610638000000000125e-01 -5.600527000000000109e-03 8.989155000000000062e-02 9.115305999999999409e-02 1.411795000000000133e-01 6.184385999999999495e-01 -1.937359999999999950e-03 7.838481999999999394e-02 -5.204891999999999852e-02 -1.905970999999999915e-01 -6.500333999999999834e-01 3.137538999999999745e-01 6.892350000000000421e-01 2.766141999999999768e-01 -1.792422999999999933e-01 1.619415999999999911e-02 -1.400995999999999908e-01 4.594941000000000164e-01 1.089709999999999984e-02 -3.906848999999999739e-02 8.152014000000000482e-02 2.376566999999999985e-01 1.078600000000000045e-02 -1.517023000000000121e-01 4.841945000000000277e-01 -3.794859999999999900e-01 -6.822686999999999502e-01 4.398256999999999861e-01 -2.512854000000000129e-02 1.517647000000000024e-01 3.018881999999999954e-01 7.165116000000000540e-02 3.758754000000000262e-01 -1.907597000000000043e-01 -3.149431999999999926e-02 3.363071999999999728e-01 2.854402999999999802e-01 -2.076533000000000129e-01 2.994773000000000018e-01 3.304366000000000247e-01 2.633626000000000023e-01 6.637252000000000152e-01 3.077352999999999894e-01 2.625472999999999835e-01 -9.559893999999999337e-02 8.595762000000000125e-01 -1.953452999999999995e-01 1.772332000000000074e-01 2.090316999999999870e-02 -2.595959999999999934e-01 -3.260099000000000191e-01 -3.415883000000000114e-01 -1.757198999999999914e-02 -1.209560999999999970e-01 2.336731999999999976e-01 -4.716657000000000211e-01 -1.548970000000000069e-01 -8.205487999999999671e-02 2.152532000000000056e-01
-3.815972999999999726e-01 -1.342357999999999885e-01 2.514119000000000215e-01 3.131965999999999917e-02 -6.109092999999999885e-01 2.278580000000000050e-01 1.324887999999999899e-01 2.605592999999999937e-01 -2.147978000000000109e-01 2.081155999999999805e-03 1.790025000000000088e-01 -7.730623999999999829e-02 1.000651000000000040e-01 6.484529999999999461e-01 5.178760000000000030e-01 -2.520113999999999965e-01 -1.642342999999999997e-01 -6.338781000000000276e-02 6.343771999999999744e-01 6.670907000000000364e-01 8.499155999999999933e-01 3.591863000000000139e-01 -3.167311999999999905e-01 4.967675999999999759e-01 2.756899999999999906e-01 3.364005999999999941e-01 -5.580551000000000261e-01 -1.837265000000000079e-02 3.737901000000000140e-01 -2.504593000000000097e-02 1.379296000000000133e-01 -1.377849999999999908e-01 -2.321079000000000059e-01 3.155419999999999892e-01 -8.922969999999999513e-02 -4.943006999999999956e-02 1.952251000000000125e-01 4.650249000000000188e-01 5.151812000000000058e-01 -4.147284999999999860e-02 -6.306416000000000244e-01 8.331030999999999853e-01 8.285685999999999884e-01 7.558116000000000279e-01 7.822934000000000276e-01 5.717497000000000273e-01 7.506053000000000308e-01 7.382269999999999666e-01 2.573195999999999817e-01 8.690916999999999393e-02 9.072831999999999564e-01 3.844868000000000174e-01 2.044076999999999977e-01 3.165733000000000019e-01 2.374570000000000014e-01 7.213174999999999622e-03 -4.477712999999999832e-01 4.111439000000000066e-02 7.490828999999999960e-01 -8.074879999999999558e-02 7.024515000000000065e-01
1.058233999999999980e-01 -1.916341000000000017e-01 7.200468999999999620e-02 -1.760474999999999957e-01 4.194927999999999990e-01 2.090866000000000113e-01 -8.907268999999999604e-02 -2.476328999999999891e-01 9.891119999999999912e-01 3.134753000000000123e-01 5.600258000000000180e-01 3.214662999999999826e-01 1.211562000000000056e-01 4.987268999999999730e-01 3.743948999999999749e-01 6.097479999999999567e-01 2.073628999999999889e-01 8.614792999999999756e-02 -3.910573999999999995e-02 7.193969000000000058e-01 -6.850293000000000354e-02 1.447732999999999937e-01 2.037047999999999914e-01 1.645855999999999986e-01 -4.164701999999999987e-02 -6.761253000000000055e-03 5.548085000000000377e-01 -7.104462000000000277e-02 -9.426516000000000062e-02 4.351187000000000249e-01 -1.321498000000000117e-01 3.438818000000000152e-01 2.093206999999999984e-01 2.768134999999999901e-01 -1.026896999999999949e-01 -1.709519999999999929e-01 7.299231999999999942e-02 8.235962000000000005e-01 3.024480999999999975e-01 1.818230000000000124e-01 8.757494999999999585e-01 1.168972000000000067e-01 9.215919999999999668e-01 8.948515999999999693e-01 1.135823999999999945e+00 7.552830999999999850e-01 7.897357999999999878e-01 1.142171000000000047e+00 1.057193000000000049e+00 -1.163275000000000003e-01 -1.703165000000000096e-01 1.576076999999999895e-01 2.842503999999999864e-02 1.280155000000000043e-01 -2.483086999999999933e-01 1.511606000000000061e-01 -5.383067000000000268e-01 -9.745236999999999650e-02 -2.479648999999999881e-01 -3.265743999999999869e-01 -1.245659999999999962e-01
3.885437999999999947e-01 -1.366535999999999862e-01 1.256829999999999892e-01 -2.585735999999999937e-02 -6.275867000000000251e-02 1.976042000000000076e-01 3.560186000000000184e-01 4.664086000000000065e-01 1.046646000000000035e-02 3.085402999999999896e-01 -1.502147000000000066e-01 2.257897000000000098e-01 4.113152999999999948e-01 4.215336000000000083e-01 3.017017000000000171e-01 6.331147999999999776e-01 2.930455000000000143e-01 -3.692188999999999888e-02 -4.781464000000000270e-01 2.128939999999999999e-01 9.746252999999999861e-03 -1.927047999999999955e-02 3.174600000000000199e-01 -3.458305999999999880e-01 2.794547000000000003e-01 -4.700878000000000001e-01 1.168177999999999939e+00 3.015133999999999870e-01 -2.072545000000000082e-01 6.452151999999999887e-01 6.948041000000000356e-01 -3.906094999999999706e-02 -2.116261000000000114e-01 -6.559384000000000048e-02 7.384290000000000020e-01 -8.711588000000000664e-02 2.072441999999999895e-01 -4.552853000000000039e-01 5.192018999999999940e-01 6.282767000000000213e-01 2.150142999999999915e-01 6.782346000000000208e-01 9.831564000000000414e-01 1.145764999999999922e+00 1.052483000000000057e+00 1.779538999999999982e+00 1.897556000000000020e+00 5.851127000000000411e-01 4.046340999999999966e-01 9.598486999999999991e-01 6.125355000000000105e-01 2.411698999999999926e-01 1.808907999999999905e-01 5.548642000000000296e-01 7.833307999999999938e-02 -1.945340999999999876e-01 2.986619999999999830e-01 -1.564991000000000021e-01 2.199148999999999896e-02 3.776602000000000015e-01 -9.567404000000000186e-02
-4.179660000000000042e-01 1.179665000000000054e-02 2.922373999999999805e-01 -3.965998000000000023e-01 -3.350927000000000211e-01 3.240295999999999732e-01 1.801876000000000033e-01 1.151381999999999961e-01 -5.742951999999999779e-02 2.686482000000000037e-01 7.449189000000000505e-01 2.880622999999999934e-01 1.452661999999999898e+00 1.023997999999999964e+00 1.441655000000000020e-01 9.082139000000000184e-01 -1.227113999999999983e-01 4.012013999999999858e-01 6.433590000000000142e-01 6.870502000000000553e-02 -4.033505999999999897e-02 4.307143999999999973e-01 -1.486021999999999899e-01 -4.486558999999999964e-01 -1.283781999999999979e-01 -4.064703000000000066e-01 5.520167999999999742e-01 4.744515999999999734e-01 -2.329082000000000097e-01 -3.552641000000000271e-01 1.400441000000000047e-01 -3.482628000000000112e-02 -2.082592000000000054e-01 4.158247000000000332e-02 -4.608028000000000124e-01 -2.744045999999999985e-01 1.531617999999999868e-01 -2.312315000000000065e-01 -2.389896999999999994e-01 5.712945000000000384e-01 5.916069999999999940e-01 5.466581999999999830e-01 4.646602000000000232e-01 8.606793000000000360e-01 2.639571000000000112e+00 2.643371999999999833e+00 2.271279999999999966e+00 1.509125999999999967e+00 8.873292000000000401e-01 6.170993000000000173e-01 8.570551999999999337e-02 6.345262999999999876e-01 4.551261999999999669e-02 -1.008175999999999933e-01 -2.433016000000000068e-01 -2.608286000000000215e-01 2.770806000000000102e-01 5.496465999999999852e-01 -5.661222000000000198e-01 -3.323435999999999925e-03 4.627570999999999768e-02
-9.836712000000000233e-02 -4.560183999999999765e-02 -6.084000999999999992e-01 1.090151000000000037e-01 -7.703135999999999317e-02 1.782682999999999907e-01 -1.352507000000000015e-02 -1.832907000000000008e-01 1.993382999999999960e-01 1.477190999999999921e-01 1.000664999999999916e+00 1.454935000000000089e+00 1.476588000000000012e+00 9.588079000000000462e-01 8.848829000000000278e-01 8.645359000000000238e-01 6.567100000000000160e-01 8.900689999999999991e-02 -2.539717000000000224e-01 -2.724583999999999895e-01 8.483303000000000371e-02 1.953333999999999904e-01 -4.692261999999999822e-02 -2.730564999999999798e-01 2.777764999999999818e-01 -1.775274000000000019e-01 1.295224000000000097e-01 5.966413000000000272e-02 -3.479207000000000133e-02 -6.328082000000000151e-02 -2.561975000000000016e-02 -3.368591000000000224e-01 -1.687839999999999896e-01 1.161350000000000021e-01 5.573418999999999457e-01 -2.118634999999999963e-02 -3.446809000000000123e-01 5.996985000000000232e-01 -4.909121999999999791e-02 1.443379999999999941e-01 5.327184999999999837e-01 6.790604999999999558e-01 8.815705000000000346e-01 1.337804999999999911e+00 2.182463999999999960e+00 2.971394000000000091e+00 2.523264999999999869e+00 1.147361999999999993e+00 6.992525000000000546e-01 -5.659908000000000300e-02 9.708387000000000266e-02 2.238746000000000069e-01 2.026853999999999878e-01 2.894418000000000268e-01 -3.242401999999999784e-01 1.346218000000000137e-01 2.945701000000000014e-01 4.777180999999999789e-02 -3.698285999999999935e-02 6.365785999999999945e-01 1.776217999999999940e-05
1.897019000000000136e-02 -6.811939000000000188e-02 -1.796504999999999908e-01 1.951354999999999895e-01 2.454231000000000051e-01 5.825245000000000006e-01 7.967480999999999869e-02 7.080566000000000360e-01 7.059716000000000324e-01 8.309022000000000352e-01 1.170523999999999898e+00 2.242217000000000127e+00 1.955553000000000097e+00 2.061802999999999830e+00 1.337677000000000005e+00 1.381400000000000128e-01 2.659149000000000096e-01 4.271902000000000199e-01 -1.958081999999999878e-01 -3.367715999999999765e-02 9.238166000000000433e-02 -1.462678000000000034e-01 -1.345717999999999914e-01 3.654760000000000231e-01 4.487251999999999907e-02 1.132306000000000007e-01 2.269605000000000095e-01 -7.060610999999999970e-02 -6.688123999999999736e-01 9.586023999999999934e-02 -3.698484000000000216e-01 4.064178000000000235e-02 3.385492999999999975e-01 -1.800202999999999873e-02 -3.818690999999999752e-02 -3.996564000000000227e-01 5.143170000000000242e-01 -3.861343999999999888e-02 4.673463999999999952e-01 2.618977000000000110e-01 3.870653999999999761e-02 -1.121068999999999954e-01 3.946701000000000237e-01 1.100859999999999950e+00 1.965837999999999974e+00 2.178949999999999942e+00 7.137858999999999732e-01 1.814781999999999895e+00 7.242392999999999748e-02 4.057107999999999826e-01 4.613922999999999774e-01 2.810809000000000224e-01 5.200455999999999968e-01 -4.693552999999999753e-01 4.362874999999999948e-01 -1.406872999999999874e-01 6.087422000000000319e-03 -1.125098999999999960e-01 1.579087999999999881e-01 -4.633435000000000192e-01 3.866553999999999824e-01
-1.929666999999999910e-01 9.579000000000000015e-02 7.736896999999999525e-02 2.030615000000000059e-01 -2.512365999999999766e-01 -1.471996000000000138e-01 2.380365000000000120e-01 3.964829000000000270e-01 3.268805000000000183e-01 1.296367999999999965e+00 1.464477000000000029e+00 2.632324000000000108e+00 2.078583000000000069e+00 1.086805000000000021e+00 7.753217000000000025e-01 3.732193999999999789e-01 2.121661999999999992e-01 -1.431467999999999907e-01 -1.504122999999999988e-01 -7.418990000000000307e-02 -1.224541999999999992e-01 1.043918999999999958e-01 -2.125371000000000066e-01 -1.882281000000000093e-01 2.245318000000000036e-01 2.853317000000000214e-01 8.306241000000000319e-02 3.581484999999999808e-01 1.111366000000000021e-01 -3.376121999999999734e-01 -1.323380000000000112e-01 1.684399000000000035e-01 -3.239048999999999956e-01 -5.561352000000000517e-01 1.467190999999999912e-01 -2.231348999999999971e-01 -2.542434000000000083e-01 -4.015665999999999958e-01 9.155503999999999865e-01 -7.042817999999999579e-01 2.066194000000000086e-01 3.278848999999999791e-01 8.527550000000000407e-01 7.364125999999999728e-01 9.746958999999999484e-01 9.315185999999999744e-01 8.860508000000000273e-01 5.994947999999999944e-01 8.028556000000000026e-01 -1.986150999999999889e-01 1.268159000000000092e-01 1.645659999999999901e-01 -7.877524000000000193e-01 6.127006000000000396e-01 9.901546999999999432e-02 -1.331781999999999931e-02 4.869646000000000252e-01 5.503881999999999941e-01 1.339847000000000087e-02 -1.357290000000000059e-02 2.492350999999999872e-01
-3.114687999999999901e-01 4.788038000000000016e-01 2.634574000000000082e-01 -2.520229999999999970e-01 1.500770999999999911e-01 8.013107000000000424e-01 -1.848807000000000089e-01 2.622376000000000151e-01 9.649246000000000212e-01 4.035044999999999882e-01 1.342240000000000100e+00 1.487020000000000008e+00 1.418346000000000107e+00 1.214374000000000065e+00 2.627443999999999891e-01 3.047372999999999887e-01 9.233373000000000275e-02 -3.341972999999999749e-01 -2.660736000000000212e-01 -6.930745000000000655e-02 3.831748999999999850e-01 8.879721999999999893e-01 7.465832000000000024e-01 1.623312000000000088e-01 -3.923070000000000029e-02 4.602264999999999828e-01 -4.600265000000000049e-01 1.748949999999999949e-01 -1.306179000000000090e-01 2.275976000000000110e-01 -1.448692000000000035e-01 -4.988002999999999881e-02 -3.012601999999999780e-01 -3.231093999999999911e-01 2.956289999999999751e-01 -3.035238000000000103e-01 3.105140000000000122e-01 3.173347000000000251e-01 2.185186000000000073e-01 5.193951999999999458e-01 2.612927999999999917e-01 -1.667117999999999933e-01 9.485873000000000221e-01 4.222015000000000073e-01 5.257631999999999861e-01 9.252175000000000260e-01 1.778015000000000012e-01 6.433324000000000265e-01 4.609249000000000263e-01 3.320896999999999877e-01 5.208975000000000133e-01 -4.284339999999999815e-01 2.299142000000000130e-01 2.971870999999999818e-01 -2.963253000000000137e-01 -1.675951999999999997e-01 5.158370999999999790e-02 4.100912999999999919e-01 -1.560881000000000074e-01 3.974864000000000175e-01 3.928927000000000114e-02
3.123271000000000241e-01 5.737052999999999736e-01 -6.963861000000000356e-02 3.552813000000000221e-01 3.285725999999999924e-01 6.041874000000000411e-01 1.979524000000000006e-01 1.001298000000000049e-01 1.450860999999999956e+00 7.632953000000000099e-01 6.046538000000000190e-01 1.217049999999999965e+00 7.271419999999999551e-01 5.665090000000000403e-01 3.021401000000000225e-01 7.178866000000000414e-01 2.381744000000000083e-01 4.764053999999999789e-01 -3.090477999999999836e-01 -1.344767000000000046e-01 2.221158000000000021e-01 2.535877000000000270e-01 -4.186547000000000185e-02 1.145108999999999932e+00 3.866025000000000156e-01 3.161660000000000026e-01 -2.464628000000000096e-01 -3.071379999999999943e-02 -6.408262000000000680e-02 6.767752000000000212e-01 1.399870000000000003e-01 -4.137610999999999928e-01 -1.187600999999999934e-01 -3.991937999999999875e-01 -9.403253000000000306e-02 2.273671999999999915e-01 -2.992066999999999921e-01 -3.428571000000000257e-01 1.563305999999999862e-01 -1.511704000000000103e-01 3.828726000000000074e-01 -1.356882000000000088e-01 4.876332999999999918e-01 1.615657000000000065e-01 7.997431000000000401e-01 5.528250999999999582e-01 1.148561000000000026e-01 2.272488000000000008e-01 1.438371999999999984e+00 5.918695000000000483e-01 1.881052000000000002e-01 4.527909999999999990e-01 -1.623065999999999953e-01 -1.304792999999999925e-02 -1.277234999999999898e-01 -2.911913999999999891e-01 4.865275000000000016e-01 2.575632999999999950e-01 1.391566999999999943e-01 3.714498999999999995e-01 -3.087159999999999904e-02
-3.065352000000000077e-01 3.541360000000000063e-01 -1.023749000000000048e-01 1.952665000000000095e-01 -1.785818999999999879e-01 4.916350999999999916e-01 4.618730999999999809e-01 4.586052999999999935e-01 1.133977000000000013e+00 5.854023999999999894e-01 3.709169999999999967e-01 7.094960000000000155e-01 2.906284000000000090e-01 2.634254999999999791e-01 -2.007008000000000125e-01 2.224249000000000087e-01 1.100377000000000022e-01 6.302302999999999378e-02 9.498715000000000630e-02 -2.226138000000000075e-02 9.688497000000000775e-03 -5.437708000000000125e-02 9.258579999999999588e-02 3.406852000000000213e-01 -1.407933000000000101e-01 -2.316666000000000003e-01 -2.999451000000000200e-01 -3.771991000000000094e-01 -9.660506000000000648e-02 1.999289999999999956e-01 -8.828115000000000268e-02 -5.660789000000000515e-01 -8.491421000000000385e-02 7.489301999999999904e-01 3.833416000000000046e-01 -2.591319000000000261e-01 1.953827999999999954e-01 2.529222999999999888e-01 -5.398509999999999698e-01 -1.809974000000000027e-01 1.151163999999999937e-01 1.886636999999999897e-01 6.671280000000000543e-01 3.031144000000000061e-01 8.497846999999999484e-01 -6.982923000000000255e-03 7.787184000000000328e-01 3.095615999999999923e-01 7.444023999999999607e-03 3.294333999999999874e-01 -1.995115000000000083e-01 9.071886999999999313e-02 4.771679999999999811e-01 1.266999000000000042e-01 -1.797118000000000049e-01 3.124893999999999727e-01 8.756907000000000441e-01 9.008824999999999472e-02 -6.445885000000000156e-03 -3.172207000000000221e-01 -4.177099000000000090e-02
1.022002000000000049e-01 1.765208000000000055e-01 4.946652000000000271e-01 -2.670531999999999906e-01 2.743455000000000199e-01 4.493215999999999877e-01 3.502887000000000084e-01 9.056020000000000181e-01 1.414862000000000064e+00 1.773063000000000056e+00 1.075911999999999979e+00 1.350335999999999981e+00 6.685614999999999787e-03 3.632334999999999869e-01 7.341456000000000370e-02 -2.248751999999999973e-01 4.107530999999999821e-01 -2.605580999999999869e-02 4.489354999999999873e-01 1.966071000000000138e-02 -3.567100999999999744e-01 2.291378000000000026e-01 -8.352207999999999855e-02 -2.675768000000000035e-01 -5.147509999999999586e-01 3.095032999999999812e-01 -1.727528999999999870e-01 -1.312589999999999937e-02 -3.020532000000000217e-01 -3.625843999999999734e-01 3.348222000000000143e-01 -8.647871000000000030e-02 -1.112461000000000005e-02 2.850558999999999732e-01 7.320862000000000203e-01 4.239148999999999834e-01 -1.054370000000000029e-01 -2.001952999999999927e-01 -1.446230000000000016e-01 -1.831869999999999887e-01 -9.570265000000000022e-02 5.281638999999999778e-02 1.987169000000000019e-01 4.519380000000000064e-01 2.681283999999999890e-01 -9.667087000000000596e-02 2.589042999999999761e-01 4.900311999999999724e-02 -5.555497000000000352e-01 1.226592999999999989e-01 6.713665000000000604e-02 5.382263999999999798e-02 -1.183458000000000010e-01 2.438893000000000033e-01 1.302904000000000007e-01 2.608219999999999983e-01 -5.352578000000000058e-01 -3.252291999999999683e-02 1.484323999999999921e-01 -4.776418000000000157e-03 3.684483000000000064e-01
2.527017999999999764e-01 2.515546000000000171e-01 -3.592237999999999820e-01 7.241020999999999708e-01 7.525176000000000087e-02 7.494638999999999607e-01 6.561346999999999596e-01 9.770105000000000040e-01 1.209140000000000104e+00 1.078122000000000025e+00 4.854614000000000151e-02 2.791648999999999936e-01 -2.380886000000000113e-01 1.075123000000000051e-01 -3.887202000000000157e-01 -1.124933999999999934e-01 -7.095068999999999682e-02 1.514182000000000028e-01 2.721763999999999850e-01 -6.034142999999999590e-01 1.301364000000000132e-01 -2.212501000000000051e-02 5.193543000000000465e-01 -3.229690000000000338e-02 1.663026999999999977e-01 6.682141000000000330e-01 -4.433038000000000256e-01 -3.618919999999999915e-01 -1.928913999999999906e-01 -4.441236999999999963e-02 -7.029963000000000184e-02 2.485172999999999965e-01 -2.958034999999999831e-02 -3.449552000000000174e-01 -6.888811999999999713e-01 -5.277258999999999700e-01 -7.896495000000000597e-02 -1.249939999999999940e-01 3.027287000000000172e-01 -2.093596000000000068e-01 2.723638999999999921e-01 6.778492999999999880e-01 -1.885834000000000121e-01 -1.562215999999999883e-01 -1.115749999999999936e-01 3.405071000000000070e-01 2.623341000000000145e-01 -2.209455999999999920e-01 9.174311000000000271e-02 -1.440171000000000090e-01 -2.569123999999999852e-01 2.647796000000000038e-01 2.438892000000000004e-01 3.591447999999999863e-01 1.895049000000000039e-01 2.230622999999999911e-01 -5.297064999999999673e-04 -3.602475000000000122e-02 6.014370999999999468e-01 -2.116864999999999997e-01 2.406700999999999979e-01
-3.011613000000000206e-01 -2.272691000000000017e-01 2.926466999999999818e-01 -3.173768000000000145e-01 3.839651000000000036e-01 7.717876999999999654e-01 9.137490000000000334e-01 1.203537000000000079e+00 8.080899000000000276e-01 7.018370999999999915e-01 3.695471000000000172e-01 -5.025882000000000266e-02 3.710378999999999761e-01 3.309500000000000219e-01 -3.115617999999999860e-02 1.040215000000000029e-01 1.368063999999999947e-01 1.784295999999999938e-01 -2.940827999999999776e-01 3.747667000000000082e-01 6.102060999999999735e-01 -4.701284000000000018e-01 -1.029081000000000023e-01 -1.335350000000000037e+00 2.388964000000000087e-01 -3.092658999999999825e-01 -8.290543999999999691e-01 -8.750402999999999931e-01 -7.141855000000000286e-01 3.132040999999999853e-01 2.759838000000000013e-01 1.113452999999999943e-01 9.753675000000000539e-01 5.450101000000000528e-01 -3.644447000000000103e-01 -3.238306000000000240e-01 4.653038999999999925e-01 -8.744739999999999458e-02 6.867060999999999860e-01 1.265506999999999882e-01 -1.888108000000000009e-01 7.590389000000000164e-02 8.432285999999999948e-01 1.933335999999999909e-03 1.934649999999999981e-01 -6.687454000000000454e-01 6.913780999999999399e-02 4.466395000000000226e-01 -1.050892999999999966e-01 6.585288999999999726e-01 5.088342000000000143e-01 8.196699999999999819e-02 -4.821692000000000200e-01 1.288899000000000017e+00 4.514345000000000163e-01 6.246591999999999700e-01 1.352462000000000109e-01 2.007943000000000089e-01 -3.255387000000000142e-01 2.272698999999999969e-01 -6.363586000000000242e-02
-1.731013000000000135e-01 8.645998000000000294e-01 -4.916872999999999938e-01 7.314863999999999811e-01 4.038182000000000160e-01 9.324734999999999552e-01 7.324889999999999457e-01 1.494885000000000019e+00 9.123991999999999658e-01 5.778354999999999464e-01 5.172231999999999941e-01 -1.502739999999999909e-01 9.183877999999999486e-02 7.534074999999999800e-02 1.926190000000000124e-01 1.252130999999999938e-01 5.339467999999999992e-02 2.647686000000000206e-01 -4.582583999999999963e-02 5.135267999999999500e-01 -1.925346000000000002e-01 -4.890953000000000106e-01 2.549505000000000243e-01 2.512735999999999859e-01 -5.996046000000000431e-01 4.532575999999999966e-03 3.462331000000000159e-01 -1.147730000000000000e-01 -2.905550000000000077e-01 1.280613000000000001e+00 2.421283999999999936e-02 -3.405870999999999760e-01 -3.944568999999999992e-01 -3.572464000000000195e-01 -1.117907000000000067e-01 -1.192608000000000001e-01 1.544490000000000030e-01 -3.435435000000000016e-01 -9.081340000000000245e-02 -6.320452999999999488e-02 5.103145000000000042e-01 1.547073999999999949e-01 -7.306340000000000057e-01 -1.671769999999999923e-01 3.154155000000000153e-01 -1.524233000000000116e-01 -8.751970000000000027e-01 3.642129999999999673e-02 4.535313999999999734e-01 1.135385000000000040e-02 -1.682701000000000058e-01 6.507081999999999589e-01 6.321476000000000317e-01 9.610522000000000509e-02 5.817702999999999625e-01 1.776789000000000007e-01 -8.596718000000000415e-02 2.391800000000000037e-01 -1.279966999999999910e-01 -4.582119000000000053e-01 5.517469999999999875e-01
1.181373000000000006e-01 -4.985773999999999762e-02 3.677168000000000103e-01 5.941750000000000087e-01 3.555502999999999858e-01 1.138120000000000021e+00 9.530992999999999826e-01 1.313217000000000079e+00 2.337287999999999866e-01 9.235891999999999991e-01 7.791934999999999834e-01 4.575213000000000196e-01 -2.400220000000000131e-01 -1.766442999999999833e-02 -4.368722000000000230e-03 3.931068999999999813e-01 -4.265226999999999768e-01 -5.492082999999999826e-01 -5.875072999999999546e-01 -5.566037999999999819e-01 3.909767000000000103e-01 -2.754692999999999725e-01 -4.551820999999999784e-01 1.494792000000000065e-01 4.281813999999999898e-01 -4.403191000000000188e-01 -2.469698999999999922e-01 2.165699000000000096e-02 -8.337497999999999854e-01 6.063671000000000477e-01 7.294458999999999804e-01 7.923717000000000121e-01 1.070507000000000097e+00 -5.407208999999999488e-01 6.167215999999999809e-01 -3.836370000000000058e-01 1.919518000000000058e-01 5.611205000000000220e-01 -3.077223000000000042e-01 -4.554493000000000014e-01 -2.664467999999999837e-01 8.188080999999999832e-02 1.823133999999999866e-01 -2.087870000000000004e-01 -2.713215000000000071e-02 3.598641999999999813e-02 -6.941937999999999720e-01 -4.480267000000000277e-02 1.493028000000000133e-01 2.026802000000000048e-01 7.286227000000000675e-02 9.722852999999999357e-02 1.875470999999999944e-01 4.776406999999999736e-01 -2.842875000000000263e-01 -1.172388999999999931e-01 -4.994974999999999832e-01 4.773393000000000219e-01 -4.122399999999999953e-01 1.540974999999999984e-01 -1.076373000000000052e-01
5.264351000000000447e-01 6.584780000000000078e-01 -7.984056999999999960e-01 4.520735000000000170e-01 -1.263466000000000068e-02 7.683364000000000305e-01 1.199972000000000039e+00 1.156581000000000081e+00 1.099334000000000033e+00 7.214483999999999897e-01 7.031967999999999552e-01 2.546912000000000065e-01 1.364892000000000050e-01 2.267672000000000021e-01 2.965163000000000104e-01 -6.685554999999999970e-02 -1.222599000000000082e-02 2.513870999999999745e-01 -1.078880000000000061e+00 9.708463999999999983e-02 -1.680628000000000122e-01 3.202684000000000086e-01 -6.301607999999999654e-01 3.743545999999999818e-01 -9.265231999999999635e-02 -5.606894000000000045e-01 -1.558160999999999921e-02 1.156495000000000051e+00 -9.428835000000000688e-02 2.268686000000000036e-01 4.295349000000000389e-03 4.274510999999999727e-01 -5.438136999999999832e-02 3.399695999999999829e-01 5.611943999999999821e-01 -5.300570000000000281e-02 -1.984223999999999988e-01 -1.027007999999999921e+00 -6.811296999999999491e-01 3.281821999999999795e-01 8.957838999999999385e-02 4.944860999999999840e-01 -2.562503999999999893e-01 2.538211000000000217e-01 4.092598000000000069e-02 6.717855000000000354e-01 3.337010000000000254e-01 2.329476000000000047e-01 5.359410000000000007e-01 2.119039000000000061e-01 5.058527000000000162e-03 1.832884999999999931e-01 7.920557000000000292e-02 -3.931450000000000222e-01 3.019199000000000188e-01 8.133005999999999569e-02 9.204586999999999630e-01 -1.362271999999999927e-01 -1.433589999999999864e-01 2.490130999999999872e-01 2.306655999999999984e-01
2.262081999999999982e-01 -3.185659000000000129e-01 9.657456999999999847e-02 1.084752999999999967e-01 1.181790999999999953e-01 1.079658999999999924e+00 1.338487999999999900e+00 5.442732999999999599e-01 9.425605999999999707e-01 4.550233000000000194e-01 2.436705000000000121e-01 7.219170000000000309e-01 1.757074999999999887e-01 -2.565038000000000040e-01 5.743625999999999454e-01 -1.267537999999999998e-01 1.055177000000000059e-01 3.369926999999999992e-03 2.891556000000000126e-01 -2.071041000000000132e-01 -1.923609000000000083e-02 -5.010461000000000498e-01 -5.698625999999999969e-01 -4.698807999999999874e-01 3.665140000000000065e-01 -1.041216999999999976e-01 3.166409000000000029e-01 8.737960000000000171e-01 -1.010461000000000054e+00 3.023596000000000061e-01 -5.499724999999999753e-01 3.979530000000000012e-01 -5.325212000000000279e-01 -4.392909999999999870e-01 4.256306000000000256e-01 2.364283000000000079e-01 -8.096122999999999514e-02 -6.450156999999999696e-01 -4.172754000000000046e-02 -4.385104000000000224e-01 -4.858985000000000110e-01 1.069162000000000029e-01 -3.146528999999999993e-02 2.384274000000000115e-01 -2.412758999999999876e-01 1.463185999999999931e-01 2.714903000000000177e-01 -2.392651000000000083e-01 -8.209990000000000343e-01 5.385856999999999450e-01 -2.539205999999999963e-01 3.275663999999999798e-01 -6.018126000000000031e-02 5.250738999999999823e-01 -2.463803999999999994e-01 1.355780000000000041e-01 1.531327000000000105e-01 2.988791000000000087e-01 4.049045000000000005e-01 -6.680721000000000576e-02 -2.710137000000000240e-01
1.391497999999999902e-01 7.556966999999999990e-01 7.512900000000000134e-01 4.940824999999999800e-01 7.023357999999999546e-01 1.181168999999999913e+00 9.280129999999999768e-01 1.776688999999999963e+00 8.124169999999999447e-01 2.052995999999999988e-01 2.370637999999999912e-01 3.617368000000000250e-01 -4.987274999999999903e-01 6.490730999999999584e-02 4.051855999999999791e-01 -3.156173999999999924e-01 -6.904763999999999902e-01 1.138484000000000024e-01 -4.498100999999999905e-01 -1.220703000000000066e-03 -3.264816999999999858e-01 1.506676999999999877e-01 3.077506999999999882e-01 2.906741999999999937e-01 4.655889999999999751e-01 -5.297203000000000328e-01 1.377053000000000027e-01 1.225870999999999933e+00 1.108392999999999962e+00 9.431600999999999457e-01 1.459586999999999968e+00 3.121681000000000039e-01 7.409896999999999734e-01 2.186298000000000130e-01 9.848356000000000332e-01 9.851646000000000014e-02 -5.586157000000000483e-01 -1.754756000000000093e-01 2.678103000000000011e-01 -4.467273000000000077e-02 -6.582040999999999586e-01 -3.489971000000000045e-01 6.296262999999999721e-01 -3.134332000000000229e-01 2.986283000000000132e-01 -1.304378999999999955e-01 6.742331000000000296e-01 -2.014915999999999929e-01 -3.996323999999999987e-01 -3.352360999999999813e-01 2.938112999999999975e-01 1.597572999999999910e-01 7.857629999999999892e-01 -2.036314999999999931e-01 5.894697000000000131e-02 -2.934854000000000074e-01 2.167345999999999995e-01 8.114647999999999861e-01 5.751353999999999633e-01 -1.864522000000000124e-01 6.555754000000000303e-01
-2.039216000000000084e-01 -8.225926999999999545e-02 4.681455999999999951e-01 7.214500999999999831e-01 5.773972000000000548e-01 8.786823000000000272e-01 1.230143999999999904e+00 6.121535999999999644e-01 1.087566999999999950e+00 9.035697999999999785e-01 8.109608000000000372e-01 4.354454999999999854e-01 4.314362999999999948e-01 2.695602999999999749e-01 4.037950000000000150e-01 1.942321999999999937e-01 1.094374999999999931e-01 4.871445999999999832e-01 -2.225113999999999981e-01 1.552260000000000029e-01 -6.380934000000000328e-01 -8.850312000000000456e-02 2.576799000000000173e-01 6.285629000000000355e-01 5.848364999999999814e-01 -4.715918999999999840e-03 -1.984730000000000105e-01 6.303587000000000495e-01 1.508112000000000064e-01 7.820491999999999999e-01 -4.029639999999999667e+00 -2.835227999999999859e+00 -1.366997000000000018e+00 5.160521999999999609e-01 1.476180999999999965e+00 -4.614916000000000018e-01 -2.255783000000000094e-01 -2.866873999999999811e-01 -7.518546999999999869e-01 -2.633345000000000269e-01 5.288825000000000331e-01 5.663909999999999778e-01 1.618996000000000046e-01 -3.343220000000000081e-01 -2.534486000000000239e-01 3.806237000000000092e-01 -7.415038000000000462e-01 -2.353274999999999950e-01 -3.997803000000000294e-03 4.264176000000000077e-01 7.785511000000000514e-02 2.950056999999999818e-01 1.243628999999999984e-01 5.625045000000000045e-02 -4.608079999999999954e-01 2.699139999999999873e-01 6.914074999999999527e-01 -6.097617999999999788e-02 5.252814000000000094e-01 2.773277000000000103e-01 4.879384999999999972e-02
2.868653999999999926e-01 -4.482402999999999804e-01 -1.065187999999999968e-01 -1.582198999999999967e-01 5.546459999999999724e-01 6.069695000000000507e-01 1.336837999999999971e+00 7.870764999999999567e-01 1.136894999999999989e+00 6.034302999999999750e-01 1.393419999999999936e-01 4.351929999999999965e-01 -1.684396999999999978e-02 2.607709000000000277e-01 -5.717600999999999933e-01 4.692568999999999768e-01 -4.954226999999999936e-01 -5.593082999999999805e-01 3.803533000000000053e-01 3.145942999999999934e-01 -5.879075999999999746e-01 1.132757999999999959e-01 2.212057000000000051e-01 3.004531999999999758e-01 6.935357999999999801e-02 -1.885842999999999894e-02 -7.121357999999999855e-01 -9.471521000000000523e-01 -3.178386999999999740e-01 1.401061999999999863e-01 -1.085205000000000058e-01 -3.256492999999999749e-01 1.081163000000000096e+00 2.311171999999999949e-01 2.397489999999999899e-01 8.721227999999999758e-01 -1.901693000000000133e-01 3.849315999999999849e-02 3.521938000000000013e-01 4.305784999999999751e-01 -3.521160999999999874e-01 -2.096783999999999870e-01 1.502032000000000089e-01 2.916632000000000113e-01 -6.172024000000000399e-01 4.434967000000000076e-02 4.223740000000000272e-01 3.895470999999999795e-01 -2.165162999999999949e-01 -3.532030999999999921e-01 -2.193636999999999948e-01 6.225365000000000065e-02 -1.217267999999999961e-01 -1.177899000000000029e-01 7.320079000000000446e-01 4.757104999999999806e-01 9.383511999999999409e-02 4.208393999999999746e-01 -1.457981000000000138e-01 3.183340000000000058e-01 7.975556999999999785e-02
-5.803787000000000251e-01 3.052423000000000219e-01 5.970935000000000548e-01 2.619693000000000160e-01 5.815019999999999634e-01 1.336986999999999925e+00 1.216719000000000106e+00 6.811587999999999532e-01 6.532873999999999626e-01 6.900650000000000395e-01 1.048891999999999936e+00 1.671015999999999890e-01 4.975584000000000118e-01 4.315517999999999854e-01 4.067721000000000253e-01 2.256469999999999865e-01 -5.618997000000000019e-01 -2.441302999999999945e-01 1.534420999999999979e-01 1.690972000000000031e-01 6.466946999999999557e-01 3.747497000000000189e-01 1.010908999999999974e-01 7.792854000000000447e-02 -1.075901999999999969e-01 3.778405000000000236e-01 -8.032894000000000145e-02 8.490467000000000153e-02 2.010450000000000015e-01 1.731306000000000012e+00 3.344749000000000194e+00 1.543355999999999950e+00 1.471724000000000032e+00 2.128600999999999931e-03 -5.280799999999999939e-01 5.114412000000000402e-01 2.805275999999999881e-01 -8.562058999999999642e-01 -5.140126000000000417e-01 -1.733898999999999857e-02 1.835288999999999948e-01 -3.286576000000000081e-02 1.129947000000000035e-01 4.201554999999999873e-02 -1.486250000000000071e-01 -6.873833999999999500e-02 -2.405809999999999893e-02 6.582149000000000472e-01 2.506347999999999909e-01 -6.613499999999999934e-01 4.203723999999999794e-01 8.679140000000000466e-02 8.171391000000000071e-02 -1.913207000000000102e-01 9.815093999999999763e-01 -2.975312999999999986e-01 2.774750999999999954e-02 6.401099000000000094e-01 5.953857999999999651e-01 -1.142766999999999949e-01 -1.859637000000000095e-01
-1.442672999999999872e-01 1.143031000000000047e-01 3.153682000000000100e-03 4.516813000000000078e-02 4.838040000000000118e-01 1.144014000000000086e+00 8.891362000000000432e-01 1.131307999999999980e+00 1.206088999999999967e+00 7.047571999999999726e-01 4.680005999999999888e-01 3.172054000000000262e-01 -6.181058999999999859e-01 -2.947707999999999995e-01 -1.546254999999999991e-01 2.695916999999999897e-01 -1.010487000000000052e-01 -5.529585999999999668e-01 7.485515999999999837e-01 -5.671654000000000417e-01 3.239640999999999771e-01 1.140733000000000025e-01 -1.389999000000000096e-01 -4.930560999999999972e-01 4.500221999999999833e-01 4.276052000000000186e-01 1.823864000000000041e-01 9.282398000000000038e-02 2.830714999999999759e-01 1.720828000000000024e+00 6.466064000000000256e-01 -3.072490999999999972e-01 -7.751588999999999841e-01 -1.079167999999999933e-01 -5.748672000000000226e-01 -2.582444999999999879e-01 -6.871357000000000159e-01 -7.145517000000000118e-01 -7.046297000000000255e-01 1.026737999999999956e-01 -9.013295000000000334e-02 -1.910195000000000087e-01 8.131455999999999407e-02 -1.876751000000000114e-01 -1.045851000000000003e-01 5.703477000000000130e-01 3.983580999999999928e-01 1.977185999999999944e-01 1.882408000000000137e-01 -6.203248000000000095e-01 7.544518000000000058e-01 3.234550999999999954e-01 1.627236999999999989e-01 -3.271643000000000190e-01 -1.574671000000000057e-02 -2.286308999999999911e-02 -6.514754999999999852e-02 2.170584000000000124e-01 -1.462971000000000132e-01 2.107780999999999960e-01 5.025426000000000198e-02
-1.017914999999999931e-01 2.159108000000000138e-01 6.350021999999999611e-01 7.957752999999999632e-01 1.123690999999999995e-01 7.281159000000000381e-01 1.152775000000000105e+00 1.282332999999999945e+00 9.382690999999999670e-01 5.959290000000000420e-01 9.728208999999999884e-01 -1.986687000000000036e-01 4.554755999999999805e-01 -2.111393000000000020e-01 -3.497190000000000021e-01 2.546259000000000161e-01 -3.554262000000000254e-01 -1.366745999999999933e-02 -1.008383999999999947e-01 3.999213999999999825e-01 -9.902930000000000066e-02 -4.237269999999999925e-02 -8.270463999999999594e-01 -1.233082000000000067e-01 -5.547476000000000074e-01 -5.059327999999999603e-01 1.764426000000000050e-01 5.262561000000000044e-01 9.458542000000000338e-02 -8.185576999999999437e-02 1.338592000000000004e+00 -1.197025000000000006e+00 4.347676999999999792e-01 -3.358153999999999861e-01 3.928823000000000176e-01 -1.063145999999999924e+00 -6.348895999999999706e-02 -3.523042000000000118e-01 1.145511000000000029e-01 -1.859801000000000093e-01 -3.243991999999999987e-01 -3.672786000000000106e-01 1.328062999999999987e-02 -5.861211000000000199e-02 -4.253101000000000242e-01 -4.058922999999999837e-01 -5.693232999999999766e-01 6.630222000000000060e-01 2.558049000000000017e-01 -2.385513999999999968e-01 -2.106751000000000040e-01 5.807335999999999609e-01 7.089282999999999557e-01 -4.263244999999999951e-01 -1.320906000000000025e-01 -8.749985999999999875e-02 -1.416179999999999939e-01 8.145496000000000680e-02 3.784266000000000019e-01 -1.168205999999999967e-01 2.161685999999999885e-01
-6.077010999999999941e-01 2.074512000000000023e-01 5.294240000000000057e-01 8.666257000000000543e-01 1.325525999999999927e-01 9.669931000000000498e-01 1.163810000000000011e+00 1.752391999999999950e+00 8.611050000000000093e-01 1.028294999999999959e+00 7.213178999999999563e-01 -1.487016999999999922e-01 -6.429633000000000154e-01 2.892897999999999858e-01 -3.375955999999999957e-01 -1.776188999999999962e-01 -6.918339999999999490e-01 -4.065576000000000190e-01 -2.591989000000000098e-01 6.510420000000000096e-01 -3.294858999999999982e-01 -9.659197000000000477e-01 -1.602156000000000136e-01 2.641858999999999735e-01 2.264519000000000115e-01 -1.521173000000000108e-01 2.757358999999999852e-02 -4.104662000000000033e-01 -4.377651000000000181e-01 -4.689907999999999855e-01 -1.538753999999999990e-02 -5.255885000000000140e-01 -4.632196000000000091e-01 -1.670165000000000122e-01 -5.880117000000000260e-01 -3.535413999999999918e-02 3.191403999999999908e-01 1.622957999999999901e-01 3.075432999999999986e-02 -4.182338999999999918e-01 -3.711673999999999807e-01 -7.484496000000000482e-01 1.238237999999999978e-01 4.953288000000000135e-01 2.472128000000000103e-01 -2.586949000000000054e-01 -2.966520000000000268e-01 -3.285693000000000086e-01 -3.266958999999999835e-01 4.752981000000000011e-01 1.410192000000000112e-01 3.234383000000000119e-01 4.491240000000000232e-01 5.697482999999999714e-02 -2.299168000000000045e-01 -6.163373999999999936e-02 -9.452571999999999364e-02 -2.934509000000000145e-01 1.696406000000000025e-01 4.245632999999999768e-01 1.063049999999999967e-01
2.083344000000000029e-01 1.258019999999999972e-01 1.081223999999999963e+00 1.381589000000000012e-01 3.591978000000000115e-01 1.140744999999999898e+00 1.254938000000000109e+00 9.710318000000000005e-01 1.804761000000000060e+00 1.160392000000000090e+00 5.647136999999999851e-01 3.091592000000000229e-01 -2.809702999999999853e-02 4.639379000000000142e-01 -4.125228000000000228e-01 3.172616999999999798e-01 -1.374844000000000066e-01 8.276575000000000459e-01 3.212441999999999798e-01 2.659275999999999862e-01 -6.822918999999999512e-01 -2.779300000000000104e-01 -5.336218000000000350e-01 -1.823918999999999957e-01 -1.502477999999999869e-01 5.711079000000000017e-01 -3.472524000000000166e-01 2.566112999999999866e-01 -2.023119999999999918e-01 -1.664828999999999962e-02 -8.619594999999999341e-02 -1.113639000000000018e-01 5.460587000000000080e-01 -1.874823999999999935e-01 -5.993223000000000300e-02 -2.473450000000000093e-01 3.034370000000000123e-01 -1.021180000000000004e-01 -1.036098000000000019e-01 -1.771262000000000114e-01 3.049420999999999937e-01 3.110036999999999940e-01 2.127255999999999869e-01 -9.036613000000000284e-02 1.654114999999999891e-01 5.578026000000000373e-01 -3.595518999999999799e-02 -1.184706999999999982e-01 4.951478999999999742e-01 1.674847999999999892e-01 2.911188000000000109e-01 -3.757996000000000114e-01 -5.061518999999999741e-02 1.021475000000000022e-01 1.118939999999999935e-01 1.960880999999999874e-01 2.041561000000000070e-01 2.071563999999999905e-01 7.150092999999999588e-01 4.006127999999999911e-01 2.919468000000000063e-02
-1.345279999999999913e-02 2.450052000000000063e-01 -1.782722999999999947e-01 6.404425999999999730e-01 1.387068999999999941e-01 8.516382000000000119e-01 1.688797000000000104e+00 1.872946999999999917e+00 1.615458999999999978e+00 8.813988999999999852e-01 1.276207000000000091e+00 4.064139999999999975e-01 2.844833999999999904e-02 -4.279734000000000038e-01 -4.522888999999999937e-01 -3.384995000000000087e-01 2.632954000000000128e-01 -5.260281999999999458e-01 -7.578014999999999578e-03 -1.533577000000000135e-01 7.026755999999999558e-01 -2.381460999999999995e-01 1.534513999999999878e-01 -1.013198999999999961e+00 2.449355000000000004e-01 2.075223999999999958e-01 -1.221746999999999972e-01 -5.596588000000000118e-01 -1.156635000000000024e-01 1.364597999999999922e-01 1.116748000000000046e-01 -3.563356000000000162e-02 5.881739000000000273e-01 -9.088296999999999626e-01 -4.214322999999999819e-01 1.777034000000000113e-01 3.764318999999999998e-02 1.469003999999999865e-01 -2.099290000000000045e-01 4.382755999999999874e-01 -2.701051999999999897e-01 7.437580999999999776e-01 -6.181394999999999529e-01 -2.770612000000000075e-01 -1.733620999999999912e-01 5.350350999999999718e-02 1.923694999999999988e-01 -6.868345000000000145e-01 -4.852766000000000024e-02 3.938689000000000218e-01 -2.566077999999999970e-01 -3.752744000000000080e-01 4.380607999999999724e-01 9.931695000000000106e-02 3.780530999999999753e-01 1.065948000000000034e-01 1.749468999999999885e-01 1.638799999999999979e-01 1.197655999999999998e-01 9.690192000000000250e-02 6.830883000000000094e-02
-5.303684000000000176e-02 5.548735999999999668e-01 1.886641000000000012e-01 -3.370498000000000105e-01 9.851695000000000313e-01 8.373523000000000494e-01 1.430500000000000105e+00 1.787469999999999892e+00 1.551596999999999893e+00 1.350975999999999955e+00 1.201929999999999943e+00 1.784193000000000029e-01 -4.211186999999999916e-03 2.234937999999999925e-01 6.436108000000000384e-01 -6.376222999999999752e-01 1.854776999999999945e-03 2.969901999999999820e-01 -3.204668999999999990e-01 -1.827501999999999946e-02 1.947950999999999988e-01 -2.868358999999999770e-01 -7.115848000000000173e-01 3.790064000000000211e-01 1.181114000000000053e-01 1.124470000000000053e-01 -7.221364999999999590e-01 -2.700395999999999908e-01 -6.280073999999999934e-01 1.976352000000000109e-01 6.101849000000000300e-01 -5.887637000000000009e-01 -3.200358999999999843e-01 2.957796999999999787e-01 2.520077000000000012e-01 2.389967000000000064e-01 -2.933685999999999794e-01 -3.471284000000000036e-01 -3.130908000000000024e-01 1.193203000000000041e-01 -3.944683000000000217e-02 -6.309607999999999883e-01 -2.620433999999999819e-01 3.186311000000000004e-01 -1.670172000000000045e-01 -8.180213000000000068e-02 -1.955289000000000055e-01 -1.072381000000000029e-01 7.527488000000000234e-02 4.529747000000000079e-01 -4.295924999999999883e-01 -2.453455999999999970e-01 3.103616000000000152e-01 1.314008999999999872e-01 2.805984999999999729e-01 3.294238999999999917e-01 1.626229999999999898e-01 -2.254291999999999963e-01 6.886727000000000265e-01 1.371253000000000055e-02 3.122470000000000107e-02
3.397695000000000021e-01 4.688746999999999776e-01 5.097005999999999482e-01 1.093101000000000100e+00 2.656410000000000160e-01 -1.504451000000000052e-02 7.207527000000000239e-01 1.312186999999999992e+00 2.160991999999999802e+00 1.616378000000000092e+00 1.377796999999999938e+00 1.347377999999999965e+00 9.402285000000000226e-01 -1.282696999999999865e-01 5.886413000000000340e-01 -3.739957999999999894e-01 4.451851000000000003e-01 -8.916414000000000284e-02 1.324904000000000012e-02 1.128612999999999977e-01 7.348465999999999332e-02 -3.014433000000000251e-01 -2.845931000000000155e-02 -4.781393999999999922e-01 -6.076019000000000281e-01 -5.734202999999999939e-01 -8.807062999999999697e-02 2.042148000000000019e-01 2.095281999999999978e-01 5.292176999999999992e-02 4.169393000000000127e-01 -4.288111000000000006e-01 -9.148121000000000377e-03 -6.708716999999999597e-01 -3.539061999999999764e-02 4.905597999999999903e-01 -5.142259999999999609e-01 1.187548999999999966e-01 4.343454999999999955e-01 -4.960396999999999723e-01 -5.153763999999999568e-01 8.491674999999999640e-01 -7.004881000000000302e-02 -8.891952000000000189e-02 -3.036080999999999919e-01 -2.477152999999999994e-01 9.445131000000000707e-03 -1.110929999999999973e-01 -1.859472000000000069e-01 -1.206243000000000072e-02 1.704823000000000033e-01 7.903039000000000591e-03 3.602881000000000000e-01 3.775031999999999832e-01 1.174603000000000036e-01 4.445825999999999945e-01 7.339335000000000164e-01 8.922644999999999882e-02 -4.190099999999999936e-01 -2.956187999999999871e-02 -3.878598999999999936e-02
-6.399879000000000540e-01 1.809012999999999871e-01 1.065089000000000036e-01 5.326475999999999988e-01 3.301961999999999953e-01 1.175813999999999915e+00 9.553867000000000331e-01 1.586753999999999998e+00 2.155993000000000048e+00 2.187297000000000047e+00 2.192004999999999981e+00 1.442341000000000095e+00 1.034896000000000038e+00 2.427390000000000103e-01 1.660370999999999930e-01 4.368650999999999784e-02 3.723925000000000152e-01 2.749249000000000276e-01 -8.208786999999999334e-02 5.248952999999999536e-01 9.077883000000000480e-02 -1.812858999999999998e-01 -9.863566999999999474e-02 1.336873000000000089e-01 2.200438999999999867e-01 -4.389887000000000095e-01 2.592859000000000136e-01 -3.670753999999999961e-01 3.898938000000000126e-01 9.816669999999999563e-02 6.624362000000000306e-01 -8.206819999999999393e-02 2.468700000000000061e-01 -1.255490999999999968e-01 4.155945999999999946e-02 3.874954999999999927e-01 1.385006000000000015e-01 -3.205895000000000272e-01 -4.003313000000000010e-01 3.706775999999999960e-01 7.626587999999999701e-01 3.514866999999999853e-01 4.549267000000000172e-01 2.170240999999999837e-02 -4.728007000000000043e-02 -5.003085000000000448e-01 -7.308970999999999663e-01 2.178999000000000075e-01 7.188708000000000597e-02 -5.503070000000000184e-02 4.192778999999999812e-01 -4.627960999999999880e-02 1.301460000000000117e-01 8.468035000000000423e-01 -2.079852999999999910e-02 6.096437999999999580e-01 5.931688999999999989e-01 4.850262000000000184e-01 4.483311999999999714e-02 -1.209207000000000060e-01 2.553819999999999979e-01
6.722506999999999788e-01 -2.558064000000000171e-02 8.408295999999999826e-02 1.497894999999999921e-01 6.758792000000000133e-01 5.977070000000000299e-02 6.787279000000000506e-01 1.662330000000000085e+00 1.207497999999999960e+00 2.433641999999999861e+00 2.631793000000000049e+00 1.748370999999999897e+00 1.241246999999999989e+00 4.264815000000000134e-01 3.301332000000000155e-01 -2.195406000000000024e-01 -5.670787000000000466e-01 -1.124285000000000007e-01 -6.501411000000000273e-01 1.491462999999999990e-02 -1.258469999999999867e-01 -2.181412000000000073e-01 2.703302000000000205e-01 8.217620999999999953e-02 -1.604335000000000067e-01 -4.784075999999999884e-01 1.265980999999999912e-01 1.128716000000000025e-01 3.763676000000000087e-03 -7.247031000000000445e-01 -2.074131999999999920e-01 -3.423336000000000157e-01 -6.579173000000000382e-01 -6.848073000000000354e-02 -2.583264999999999737e-04 -1.083701999999999999e-01 -5.475988000000000522e-01 2.760059999999999736e-01 -3.398133999999999877e-01 -8.875064000000000286e-01 2.419407000000000085e-01 7.343220999999999776e-01 4.320624000000000131e-01 7.623815999999999926e-02 -4.251894999999999980e-01 -2.134022999999999892e-01 2.123069999999999957e-01 1.095957999999999932e-01 3.312248999999999888e-01 -1.518046999999999973e-02 -3.972148999999999819e-02 -6.677800000000000402e-02 1.003134999999999999e-01 2.671455999999999831e-01 4.278573000000000098e-02 1.543915000000000044e-02 5.569606999999999752e-01 -3.380480000000000290e-02 3.123445000000000249e-01 -5.092474999999999641e-01 5.537808000000000314e-02
-4.153617000000000004e-01 9.339359000000000410e-01 1.473509000000000069e-01 9.229302000000000339e-01 1.411225999999999869e-01 4.141123999999999916e-01 3.523775000000000102e-01 8.239431000000000394e-01 1.264998999999999985e+00 1.801112000000000046e+00 1.467087000000000030e+00 1.782335999999999920e+00 4.516217000000000148e-01 6.011585999999999874e-01 -2.186846000000000068e-01 9.836005999999999916e-02 2.214807000000000026e-01 -4.218171000000000004e-01 1.748033999999999977e-01 -1.914916999999999869e-01 4.446334000000000120e-01 -2.217648000000000119e-01 -8.742809000000000474e-04 1.995422000000000029e-01 -4.754341999999999735e-01 -7.442092999999999625e-02 -3.410253999999999786e-01 -1.994502999999999970e-01 1.735608999999999902e-01 6.569932000000000549e-01 5.277014000000000010e-02 2.539580000000000171e-01 -3.326894000000000240e-01 2.738176999999999972e-01 5.040776999999999758e-02 6.676817000000000168e-02 1.938452999999999982e-01 3.759384000000000337e-02 2.633724000000000065e-01 1.893040000000000000e-01 -1.461274999999999935e-01 5.998181999999999681e-01 -1.140935000000000005e-01 -3.133318999999999965e-01 2.736442999999999862e-02 1.663304999999999922e-01 7.011416000000000315e-01 3.885852000000000195e-01 -8.241856000000000182e-02 -3.245635000000000048e-01 -1.239721000000000017e-01 1.352424999999999877e-01 -2.398841999999999919e-01 -2.176868999999999887e-01 3.145730999999999944e-01 -4.212882999999999906e-02 1.148794000000000065e-01 -2.329096999999999973e-01 7.979244000000000614e-02 -2.437360000000000082e-01 -1.473604000000000025e-01
1.876053000000000026e-01 2.861541000000000223e-01 -2.348926999999999959e-02 5.759480000000000155e-01 -2.205980999999999914e-01 9.116606999999999905e-01 7.443811000000000178e-01 2.891669000000000045e-01 1.086235999999999979e+00 1.359046999999999894e+00 1.112154000000000087e+00 9.438410999999999884e-01 2.437128000000000072e-01 9.671813999999999689e-01 8.893541999999999836e-01 9.580885999999999569e-02 -1.826618999999999882e-01 4.636101999999999723e-01 -1.478758000000000017e-01 7.104563999999999324e-02 -1.746582000000000134e-01 3.550031000000000159e-01 -1.977378999999999942e-01 -2.302140000000000020e-01 3.815796000000000188e-01 -4.020565999999999862e-01 -1.836782999999999888e-01 -3.358889999999999931e-01 5.988793000000000033e-01 -4.160849999999999826e-01 -3.355948999999999738e-01 9.787964999999999860e-02 -3.746126000000000178e-01 7.844531999999999894e-02 -2.586838000000000193e-01 8.309138000000000635e-02 -6.700367000000000406e-01 -4.623623000000000038e-01 8.767020999999999842e-02 3.002101999999999826e-01 1.618923999999999919e-01 -3.614294000000000118e-01 6.330550000000000066e-02 6.725375000000000103e-01 4.152665999999999857e-01 -2.362244000000000010e-01 -4.337327000000000266e-01 5.521690000000000209e-01 -2.597480999999999818e-01 9.874642000000000142e-02 -3.886859999999999760e-01 6.084395999999999693e-01 -2.584937999999999958e-01 -5.713632999999999906e-02 -9.453838999999999992e-02 -1.218690000000000051e-01 1.551083000000000045e-01 5.062366999999999839e-01 -6.438540999999999848e-01 -3.611406999999999812e-01 -4.566999999999999948e-01
1.069145999999999985e-02 1.052090999999999998e-01 3.441325000000000078e-01 -2.756975999999999871e-01 6.497374999999999678e-01 1.801475999999999911e-01 2.621491000000000238e-01 3.231417999999999791e-01 7.822367000000000070e-01 7.773368000000000499e-01 1.510791999999999913e+00 1.098235000000000072e+00 3.395640999999999798e-01 5.932680000000000176e-01 3.095306999999999920e-01 -4.287362000000000117e-01 -2.445563000000000042e-01 6.181058999999999859e-01 1.754856000000000124e-02 1.026283999999999946e-01 -6.942368000000000150e-02 1.613904999999999923e-01 -2.271130000000000093e-01 -1.246170999999999945e-01 3.481118999999999741e-01 4.446578999999999948e-01 -3.997183000000000264e-01 -4.825115999999999850e-01 -1.397710000000000063e-01 -4.140842000000000134e-02 3.629557999999999951e-01 -1.612534999999999941e-01 -1.559666000000000108e-01 -8.035417000000000254e-01 1.352472000000000119e-01 1.807094999999999951e-01 -1.589667999999999984e-02 -4.254770000000000080e-02 5.411371000000000375e-01 -2.413003999999999982e-01 -2.805901000000000090e-01 1.128011000000000014e-01 -4.738440999999999903e-01 -2.630558000000000063e-01 4.252788000000000124e-01 4.696577999999999864e-02 -2.188840999999999981e-01 -2.249848999999999877e-01 -4.862259999999999915e-01 2.575133000000000005e-01 1.968929000000000096e-01 2.170173999999999992e-01 1.531884000000000023e-01 3.755247999999999919e-02 9.641555000000000264e-02 -2.557442999999999800e-01 -2.519249000000000072e-01 1.027636999999999995e-01 9.235919000000000420e-03 5.900886999999999799e-02 -7.175916000000000239e-02
-2.640542000000000167e-01 1.714175000000000004e-01 1.341925999999999952e-01 2.352189000000000085e-01 2.352179000000000075e-01 -5.535998999999999781e-02 -1.199828000000000006e-01 4.423107000000000011e-01 2.032637999999999945e-01 7.777655999999999459e-01 3.348847999999999825e-01 7.772154000000000007e-01 6.657189000000000023e-01 6.836851000000000456e-01 2.722164000000000250e-01 2.180026999999999937e-01 -1.905475000000000085e-01 7.655450000000000310e-01 2.260649000000000131e-01 1.149619000000000058e-01 4.760380000000000167e-01 -1.150619999999999941e-02 6.963848000000000260e-01 -5.113280999999999521e-01 7.503355000000000441e-02 1.473438999999999999e-01 -8.957291000000000558e-02 2.810283000000000087e-01 -3.715658000000000155e-02 -2.310659999999999936e-01 3.351985999999999855e-02 2.899823999999999735e-01 -2.093922999999999965e-02 -2.929077999999999959e-01 -1.053330999999999990e-01 -5.865942999999999852e-02 -8.144593999999999445e-01 3.285228999999999927e-02 1.587255999999999945e-01 9.500085000000000335e-01 1.600789999999999991e-01 -2.424597000000000002e-01 -4.657972000000000223e-01 -4.534918000000000282e-02 3.446464000000000194e-01 -1.196955999999999992e-01 3.988075999999999843e-01 2.568474000000000035e-01 -8.347487000000000656e-02 2.063881999999999869e-02 -1.165682000000000003e-02 -2.211253999999999997e-01 3.985666999999999960e-01 9.687871000000000676e-03 1.293383999999999923e-01 -3.820479000000000236e-02 1.321189999999999864e-01 3.243443999999999772e-01 -9.526711999999999680e-02 2.018677999999999861e-01 -1.391751999999999920e-02
-3.967322999999999822e-01 3.202937000000000145e-01 3.954699999999999882e-02 -3.412142000000000230e-01 -1.901551999999999965e-01 7.875828000000000273e-01 4.684072000000000235e-01 6.568201999999999652e-01 2.246277000000000135e-01 7.766515999999999975e-01 4.466333000000000109e-01 8.978450000000000042e-01 9.274634000000000489e-01 4.552389000000000019e-01 6.062176000000000231e-01 7.144880000000000120e-01 2.234698999999999991e-01 -4.927288000000000223e-01 -1.497062000000000115e-01 9.975599999999999745e-02 -4.929025000000000212e-01 -4.072527000000000230e-01 -2.799838000000000049e-01 -4.221057999999999755e-01 -5.460918000000000161e-01 -5.838883999999999741e-01 -1.452595000000000136e-01 -3.708711000000000091e-01 3.085912000000000099e-01 1.218255000000000032e-01 -1.592494999999999883e-01 -1.210675999999999974e-01 -6.841502000000000416e-01 1.061382000000000020e-01 1.953601000000000087e-01 2.944878000000000218e-01 -2.197375000000000023e-01 -2.233188000000000117e-01 8.632397999999999461e-02 -5.013069999999999471e-01 6.298065999999999942e-01 5.259194999999999842e-01 3.096041999999999961e-01 1.229207999999999967e-01 -9.139895000000000658e-02 2.133869999999999933e-01 -2.099256999999999929e-01 -2.785102999999999884e-01 8.075567000000000162e-01 1.722440000000000082e-01 1.368041999999999869e-01 -3.673952999999999802e-01 4.246886999999999746e-01 2.700814999999999744e-01 1.267704000000000053e-01 4.421670999999999796e-01 -3.945481000000000127e-01 1.899981000000000031e-01 3.686860000000000137e-01 -8.525443999999999800e-01 7.254525999999999857e-03
-3.049625000000000252e-01 -3.052607999999999988e-01 6.513926000000000438e-02 4.819500000000000173e-02 -9.861556000000000488e-02 -2.459443000000000046e-01 8.281976000000000615e-02 -5.122419999999999751e-01 7.762641000000000124e-01 4.589186000000000099e-01 2.079442999999999986e-01 4.278229000000000060e-01 1.066216000000000053e+00 4.420880999999999839e-01 5.394626000000000143e-01 6.767370999999999803e-01 2.372267999999999877e-01 4.389070999999999945e-02 -3.418760000000000132e-01 -3.792694999999999816e-01 1.031840000000000014e-02 -2.109788999999999970e-01 1.827200999999999964e-01 -2.995211999999999875e-01 1.997722000000000109e-01 -7.686733999999999754e-03 6.613373999999999642e-02 -5.620792999999999484e-01 3.102938000000000085e-01 -9.201371999999999329e-02 5.265176999999999774e-01 -1.386761999999999995e-01 2.192649999999999877e-01 2.771722999999999895e-02 3.893130999999999675e-02 5.694263999999999992e-01 1.725203999999999904e-01 -5.265532000000000545e-01 -1.357704000000000029e-02 3.925250000000000128e-01 -3.138238000000000139e-02 6.032507999999999759e-01 -3.928609000000000129e-01 2.600203999999999849e-01 -8.958109999999999684e-02 -2.700272000000000089e-02 -2.467034999999999922e-01 -4.459758999999999807e-01 -1.625380999999999909e-01 3.925544000000000255e-02 -1.584833999999999896e-02 1.684461999999999904e-01 -2.068644999999999859e-02 5.766476000000000379e-01 -1.597253999999999896e-01 1.463266000000000011e-01 -5.764578000000000063e-02 -4.489410999999999818e-01 -1.181235000000000063e-01 -2.117530999999999997e-01 2.164629000000000136e-01
-1.095002999999999949e-01 -1.603651000000000104e-01 -5.909075000000000299e-01 1.998640999999999890e-01 -6.020906999999999787e-01 4.294714000000000031e-01 3.899527999999999883e-01 1.073888999999999955e-01 -8.778795999999999822e-02 1.453368999999999911e-01 1.170529000000000014e-01 -6.091331999999999997e-02 1.827581000000000067e-01 5.131177000000000099e-01 2.564017000000000102e-01 2.262682000000000027e-01 4.159180000000000099e-01 4.866164000000000045e-01 -3.190981999999999846e-02 2.604118999999999740e-01 -3.318903000000000270e-01 -4.367867000000000277e-01 2.232176999999999911e-01 -2.563738999999999948e-02 3.103872999999999771e-01 -2.083623000000000072e-02 2.985162000000000093e-01 9.964322999999999930e-02 4.179157000000000011e-01 -1.746576999999999991e-01 1.013353000000000032e-01 -4.992941000000000185e-01 -1.475046999999999886e-01 -4.971471000000000084e-01 2.282586000000000059e-01 1.667081999999999939e-02 2.392629000000000006e-01 -4.458389999999999853e-01 -2.947182999999999886e-01 -1.433293999999999957e-01 -1.271111000000000046e-01 1.334888000000000047e-02 -2.382566999999999879e-01 3.229267000000000110e-01 -2.925428999999999877e-02 -1.307907000000000097e-01 -3.048969999999999736e-01 -3.863249999999999740e-01 3.714878999999999820e-01 7.815709999999999325e-02 5.516457999999999640e-01 -2.436495999999999940e-01 3.627685999999999966e-01 -1.371342999999999868e-01 -2.147869000000000028e-01 -1.930344999999999978e-01 2.930150999999999728e-01 -1.990437999999999930e-01 -4.399966000000000294e-02 1.644838000000000133e-01 -1.251873000000000014e-01
1.508135999999999921e-01 1.882802000000000087e-01 5.873606999999999578e-01 2.233055999999999930e-01 -9.122375000000000622e-02 4.607306999999999930e-01 -1.127483999999999986e-01 1.535766000000000076e-01 8.239090000000000025e-01 3.342820000000000236e-01 3.485158999999999896e-01 5.561914000000000025e-01 -8.930050999999999961e-02 9.027231999999999479e-01 6.728465999999999614e-01 7.471982999999999819e-01 4.231835999999999931e-01 1.296192000000000004e-02 -1.316136000000000042e-02 1.530197000000000085e-01 1.441381999999999941e-01 -3.220619000000000121e-01 -1.125161999999999968e-01 6.699074999999999891e-01 -9.423392999999999353e-02 1.163445000000000035e-01 -4.601670999999999956e-01 9.482980000000000229e-03 2.928215000000000123e-01 -1.797392999999999907e-01 4.067127999999999854e-01 9.410524000000000666e-02 2.763372999999999871e-02 4.888894999999999769e-01 2.605428000000000188e-01 8.645182000000000144e-01 -3.974800000000000000e-01 -1.743716999999999906e-01 1.810187000000000046e-01 -3.465139999999999887e-02 1.041047999999999973e-01 5.146205000000000362e-01 7.528787999999999592e-01 4.526028000000000273e-01 5.797689000000000314e-01 3.846484000000000014e-01 5.128987999999999881e-01 6.476517999999999997e-01 1.846584000000000003e-01 6.125312000000000534e-01 9.003218999999999805e-02 2.690447999999999729e-01 1.158475999999999950e-01 -7.919626999999999917e-02 4.454787000000000052e-01 4.239224999999999938e-02 1.652731000000000061e-01 -3.886169999999999902e-01 5.048078999999999761e-01 -1.912687999999999888e-01 -1.847198999999999924e-01
2.215016999999999958e-01 3.082949999999999857e-01 -1.880484000000000044e-01 1.840233000000000008e-01 3.096249999999999836e-01 2.540796000000000165e-01 2.618571000000000093e-01 1.815845000000000098e-01 5.634483999999999604e-01 7.647002999999999995e-01 2.417271000000000003e-01 -6.308394999999999975e-01 1.165279000000000037e-01 1.843915000000000137e-01 6.165931999999999524e-01 2.023004999999999942e-02 4.878498000000000001e-01 1.501435000000000131e-01 2.598789000000000238e-01 1.903935999999999962e-01 -2.862470999999999766e-01 7.873048000000000268e-01 4.242742999999999931e-01 1.105381000000000002e-01 4.168889000000000067e-01 -4.168260000000000021e-02 3.933374000000000037e-01 2.554149000000000003e-01 -1.848231999999999930e-01 8.783512999999999737e-02 -1.602715000000000112e-01 2.149163000000000046e-01 3.836147999999999780e-01 -2.799606000000000039e-01 -3.641093000000000246e-01 2.403513999999999928e-01 -2.372138000000000024e-01 -4.263750000000000040e-01 4.876444999999999808e-01 3.842520999999999853e-01 3.815140000000000198e-01 -3.234109000000000289e-02 -8.685439999999999133e-03 4.660559000000000229e-02 1.236360999999999988e-01 5.846654999999999491e-01 1.006983000000000045e-01 3.671553000000000178e-01 -9.187481000000000120e-02 -4.611211999999999950e-02 -5.521006000000000524e-01 5.436199999999999921e-01 -1.956654999999999922e-01 6.078137000000000123e-01 1.895649000000000084e-01 -6.216262000000000176e-02 1.477858999999999978e-01 9.051757000000000553e-02 3.333725000000000160e-01 -1.155732000000000009e-01 1.806850999999999943e-02
4.864460000000000311e-02 -6.442009999999999403e-02 -4.062414999999999776e-01 9.788524999999999310e-02 6.621953999999999341e-02 5.473554999999999948e-01 1.073183999999999916e+00 5.605761000000000216e-01 2.946577000000000224e-01 1.491181000000000034e-01 5.872703000000000229e-01 1.311305000000000109e-01 -4.277353999999999878e-01 2.443613000000000035e-01 1.205341999999999913e+00 8.741345000000000365e-01 -3.729832000000000286e-02 1.151223999999999997e-01 2.023089999999999888e-01 -3.004583000000000115e-01 2.224685000000000135e-01 -2.505825999999999887e-01 2.854822000000000193e-01 -1.221639999999999948e-01 3.179729000000000028e-01 1.045535999999999965e-01 1.877249000000000001e-01 3.304678999999999811e-01 4.219377000000000266e-01 2.058184999999999876e-01 -1.638641000000000125e-01 -8.299589000000000272e-02 3.090860999999999748e-01 -7.102751999999999677e-02 4.402423999999999782e-01 2.081265999999999949e-01 3.965535000000000032e-01 2.885780000000000012e-01 3.524700000000000055e-01 2.492719999999999936e-01 2.962731000000000114e-01 4.265727999999999742e-01 -7.821142999999999151e-03 9.490920000000000467e-01 4.187955999999999901e-01 6.441824999999999912e-01 6.801352999999999982e-01 3.892576999999999843e-01 4.039979000000000209e-01 6.153738000000000263e-02 2.931706000000000034e-01 -2.806892999999999749e-01 2.884586000000000094e-01 5.469962999999999909e-02 -1.882338000000000067e-01 4.938259999999999872e-01 -2.835060999999999831e-02 -1.033723000000000064e-03 1.444349999999999974e-02 4.689365999999999812e-01 -8.631286000000000513e-02
1.684846999999999873e-01 -2.574374999999999858e-01 -5.353470999999999647e-01 1.059395999999999949e-01 -1.371180999999999962e-02 -1.468190999999999941e-02 4.961153999999999842e-01 6.285545999999999633e-01 5.389332999999999624e-03 2.052715999999999985e-01 1.665471000000000035e-01 1.717341000000000006e-01 7.385089000000000237e-01 8.949620999999999826e-01 8.982872999999999553e-02 7.139619999999999855e-01 6.980574000000000501e-02 6.792226000000000097e-01 -2.137780000000000149e-03 -4.800241999999999704e-02 -3.208285999999999777e-02 8.275580000000000436e-02 3.576359000000000066e-01 2.842729999999999979e-01 4.342830999999999775e-01 3.564372000000000096e-01 5.358376000000000250e-01 -8.109032999999999866e-03 -1.232159000000000032e-01 5.353193000000000534e-01 2.184767999999999988e-01 -2.273011000000000129e-02 4.047530999999999768e-01 3.204362000000000044e-01 5.020611000000000379e-01 1.705985999999999891e-01 5.076747999999999678e-02 4.488021999999999845e-01 4.817368000000000205e-01 2.869928000000000062e-02 3.829827000000000092e-01 1.168776000000000037e+00 4.766135000000000232e-01 9.343333999999999806e-01 8.171159000000000061e-01 6.420816999999999775e-01 3.364962000000000231e-01 4.689539999999999820e-01 4.548206999999999944e-02 -8.776264000000000287e-02 4.174823999999999757e-01 7.426046999999999509e-02 4.879018999999999995e-01 3.634983999999999993e-01 4.454812000000000216e-01 -2.320379999999999943e-01 -3.209780999999999884e-01 -2.510770000000000016e-02 3.448432000000000164e-01 4.738958000000000059e-02 6.462449000000000665e-02
4.316594999999999738e-01 4.543928999999999885e-01 -1.933487000000000122e-01 3.588067999999999813e-01 4.220372000000000012e-02 4.624360000000000137e-01 1.168407999999999947e-01 2.831265000000000170e-02 1.723150999999999988e-01 4.357712999999999726e-01 -1.180604000000000028e-02 5.514476999999999851e-01 -5.460030000000000161e-01 2.703061999999999965e-01 5.904696000000000389e-01 1.276112000000000080e-01 5.885173000000000210e-01 3.408413000000000137e-01 2.810532000000000030e-01 2.423909999999999954e-01 4.054492000000000096e-01 5.613848999999999645e-01 2.443081000000000003e-01 2.127141000000000101e-02 8.956612000000000462e-01 1.290968000000000115e-01 -9.499865999999999866e-02 -2.752662000000000164e-02 2.747020000000000017e-01 5.666493000000000224e-01 2.589439000000000046e-01 4.323851000000000222e-01 5.102216000000000529e-01 1.611887999999999906e-03 6.639369999999999994e-01 3.870334999999999748e-01 5.281546999999999770e-01 6.568838000000000177e-01 8.527768000000000015e-01 8.024580000000000046e-01 8.297702999999999607e-01 9.019044000000000505e-01 8.704028999999999794e-01 1.688314000000000092e+00 1.484877999999999920e+00 1.239263999999999921e+00 -1.392941000000000040e-01 -8.977997000000000061e-02 2.662845999999999824e-01 5.192350999999999495e-01 3.150021000000000071e-01 1.460011999999999976e-01 1.049743999999999955e-01 -2.949635999999999925e-01 2.558626999999999985e-01 9.074517000000000000e-02 3.333672999999999775e-01 4.121676000000000228e-01 3.593884999999999996e-01 -1.825454999999999994e-01 -2.580748999999999960e-01
6.367346999999999591e-02 2.654262000000000010e-01 -4.103124000000000215e-01 1.209706000000000062e-03 2.312668999999999975e-01 -1.179732000000000003e-01 7.384684000000000248e-01 2.018304999999999960e-01 4.108106000000000257e-01 1.615000000000000116e-02 -6.743485000000000451e-02 6.269736000000000198e-01 1.251044000000000045e-01 1.385245999999999977e-01 2.488171000000000133e-01 7.701485999999999610e-01 3.326603000000000199e-01 1.749351000000000100e-01 3.900378999999999929e-01 4.753722000000000225e-01 1.353303999999999896e-01 6.257591000000000125e-01 4.941141000000000005e-01 8.214939999999999465e-01 6.621050000000000546e-01 7.966801000000000021e-01 2.684219999999999939e-01 5.669351999999999725e-01 9.674207999999999696e-01 3.942037999999999931e-01 1.428198999999999996e+00 2.791599000000000164e-01 3.320562000000000236e-01 6.891855000000000064e-01 8.300600999999999674e-01 6.312307000000000334e-01 9.013039000000000467e-01 1.348702000000000067e+00 1.339925000000000033e+00 1.191640999999999950e+00 7.902761000000000369e-01 8.373277000000000081e-01 5.012792000000000359e-01 3.558599000000000068e-01 6.906139999999999501e-01 4.791993999999999976e-01 4.857018999999999920e-02 7.338538999999999479e-01 -9.988194999999999713e-02 -1.476251000000000091e-01 -1.031201999999999952e-01 4.372494000000000103e-01 3.349069000000000074e-01 -1.373358000000000079e-01 -1.478124000000000104e-01 4.660786000000000096e-01 3.560466999999999937e-01 2.334424999999999972e-01 -9.097170999999999730e-02 -4.111956999999999973e-01 -6.616665999999999936e-01
-2.463857999999999882e-01 1.823065000000000102e-01 4.081333000000000183e-02 -3.938529000000000335e-02 -1.571922000000000041e-01 2.773911000000000016e-01 2.061015999999999959e-01 7.150030000000000274e-02 1.274270999999999876e-01 -1.066055000000000058e-01 5.082394000000000078e-01 2.164235999999999938e-01 1.285466000000000109e-01 -7.028254999999999919e-02 6.082018000000000146e-01 4.488265000000000171e-01 3.063553999999999999e-01 5.941357999999999917e-01 2.118916000000000133e-01 -7.617201999999999307e-02 1.953436000000000061e-01 3.607559000000000182e-01 4.265118999999999994e-01 4.074636999999999842e-01 8.254707000000000017e-02 1.713628000000000096e-01 1.509236999999999940e-01 3.005806999999999785e-01 1.738346000000000058e-01 6.070993999999999557e-01 8.758977999999999486e-01 6.286524000000000001e-01 1.198088000000000042e+00 2.433130999999999933e+00 1.981443000000000065e+00 2.089154000000000178e+00 1.712715999999999905e+00 9.668255999999999517e-01 9.628579999999999917e-01 1.021814000000000000e+00 8.620824999999999738e-01 7.813522999999999996e-01 7.050815999999999750e-01 9.702908999999999562e-01 -3.458737999999999830e-03 -1.886052000000000006e-01 4.219702000000000175e-01 8.815684999999999494e-02 -2.177829000000000015e-01 -2.371473000000000053e-01 9.223070999999999353e-02 -1.133431000000000022e-01 2.062306999999999890e-01 2.518137999999999765e-01 1.374528000000000139e-01 -5.217513999999999763e-01 -7.584270999999999374e-02 1.580439999999999900e-01 2.627806999999999782e-01 4.805628000000000122e-01 -2.233672999999999909e-01
2.274735999999999980e-01 -2.017152000000000112e-01 -6.941709000000000074e-02 4.838079000000000129e-01 -4.577546999999999866e-02 4.914380999999999888e-01 -1.773753999999999956e-02 -4.295666000000000206e-01 1.792536999999999880e-01 5.830355999999999733e-02 3.329299000000000008e-01 -1.128749000000000002e-01 -6.578683999999999574e-03 2.082142999999999911e-01 4.389614000000000016e-02 1.749223000000000028e-01 8.012145999999999990e-01 -1.614653000000000060e-01 -2.233798999999999924e-01 2.910907999999999829e-01 6.214119999999999644e-01 -1.154677999999999954e-01 7.899003999999999470e-01 5.193404000000000353e-01 -6.616648999999999448e-02 3.374274999999999913e-01 5.732072999999999752e-01 5.407347999999999599e-01 1.359809999999999963e+00 1.263296999999999892e-01 1.190355000000000052e+00 1.670519000000000087e+00 2.315005000000000202e+00 2.870162000000000102e+00 2.658997999999999973e+00 1.787795999999999941e+00 2.423309999999999853e+00 2.311231999999999953e+00 1.232428999999999997e+00 1.154318000000000011e-01 3.913567000000000018e-01 3.748647999999999980e-01 3.237501999999999880e-01 3.204783999999999966e-01 -4.656323999999999880e-02 3.400614999999999888e-02 7.133646999999999627e-01 5.098146000000000067e-01 -2.468631000000000020e-01 -2.429531999999999872e-02 -1.776465000000000127e-01 -1.575634000000000019e-03 -1.136519000000000001e-01 1.304519000000000095e-01 1.517700999999999911e-01 -5.203119999999999967e-01 1.360219000000000011e-01 4.932019000000000264e-01 -1.264151000000000025e-01 6.008148000000000264e-05 1.800203999999999971e-01
4.226081999999999894e-01 1.118329000000000024e-02 -2.183923000000000114e-01 1.519048000000000065e-01 -2.501827999999999830e-01 -1.326193999999999984e-01 3.438709999999999822e-01 8.343643000000000587e-02 -1.831821999999999895e-01 -1.833442000000000127e-01 1.309425999999999923e-01 3.110565000000000135e-01 1.883705999999999922e-02 1.397315000000000085e-01 3.231157000000000057e-01 7.391301000000000121e-02 2.881110000000000060e-01 -8.356017000000000305e-02 7.996638999999999831e-01 3.301985000000000059e-01 2.750934999999999908e-01 4.266211999999999782e-01 4.492958999999999842e-02 7.538542999999999772e-01 1.293263999999999969e+00 4.381418000000000257e-01 4.894477999999999884e-01 5.737330999999999959e-01 1.134357999999999977e+00 1.296030999999999933e+00 1.099647999999999959e+00 1.392962999999999951e+00 1.802025999999999906e+00 2.259424999999999795e+00 2.499948999999999977e+00 1.918841999999999937e+00 1.751270000000000104e+00 1.462480000000000002e+00 1.728933000000000053e+00 5.191118000000000121e-01 6.018508999999999665e-01 -2.013217999999999952e-02 5.769530999999999965e-01 2.445394000000000040e-02 -1.965733000000000064e-01 1.427951000000000081e-01 6.808885000000000076e-01 -7.785155999999999674e-03 3.010638999999999954e-01 -3.970540000000000180e-01 1.641237000000000112e-01 6.350158000000000191e-01 -1.426514000000000115e-01 5.717303000000000246e-01 1.785231999999999930e-01 1.739631000000000094e-01 -3.094876999999999767e-01 1.298066999999999971e-01 2.804473000000000035e-03 -3.132398000000000127e-01 -1.538698000000000010e-01
-1.140280000000000044e-01 1.474595000000000072e-02 1.873265000000000069e-01 3.123352999999999824e-01 -3.252566000000000068e-01 -1.393020000000000092e-01 -5.364067999999999614e-01 -7.090417000000000247e-02 4.282125999999999988e-01 -2.971428999999999876e-01 -2.367794999999999969e-02 6.271484000000000503e-01 -2.677425999999999973e-01 2.335405000000000120e-01 4.407781000000000060e-01 5.778010999999999564e-01 7.623750999999999722e-01 3.114274000000000209e-01 4.681354999999999822e-01 3.208508999999999667e-02 3.308993000000000073e-01 6.152250000000000218e-01 3.043656000000000139e-01 5.798354000000000008e-01 6.581810000000000438e-02 2.681304999999999938e-01 7.891936999999999980e-01 6.876832999999999974e-01 1.604282999999999904e+00 8.843505000000000393e-01 1.618066000000000004e+00 2.027709000000000206e+00 1.013063000000000047e+00 1.229546000000000028e+00 1.779047999999999963e+00 9.556921000000000443e-01 1.027077999999999935e+00 2.548658999999999786e-01 2.318902999999999937e-01 7.224181000000000352e-02 2.878870000000000040e-01 -3.046621999999999941e-01 7.635730999999999769e-02 -2.300504999999999911e-01 -1.458440000000000014e-01 2.923992999999999731e-01 4.422289000000000081e-02 7.124352000000000462e-02 -1.364579999999999960e-01 2.384352999999999889e-01 7.937162000000000384e-02 4.576417999999999875e-01 2.032334000000000085e-01 1.373895999999999971e-02 -6.186711999999999767e-02 2.929050000000000264e-01 1.996371999999999869e-01 6.659681000000000628e-02 -3.177060999999999913e-01 -2.478203000000000003e-02 1.491467999999999960e-02
-1.160661000000000054e-01 -8.026189000000000240e-02 -1.332915000000000072e-01 -6.822038999999999742e-01 9.142503000000000435e-02 -2.390288999999999886e-01 6.836351999999999707e-02 -2.408122999999999861e-02 -3.552954999999999863e-01 -8.421328999999999620e-02 -3.696859000000000117e-01 1.467855000000000132e-01 -3.813109000000000082e-01 1.428795999999999955e-01 -1.257494000000000112e-01 9.616017000000000314e-02 2.014193999999999984e-01 -2.711531999999999831e-02 4.772863999999999995e-01 3.541857999999999951e-01 5.085107999999999989e-02 2.176793999999999951e-01 8.197218000000000560e-02 -1.217490999999999990e-01 8.066537999999999486e-02 2.933328000000000046e-01 5.951383999999999563e-01 4.921993000000000062e-01 1.094783999999999979e+00 8.019998000000000404e-01 4.352009000000000016e-01 6.686678999999999817e-01 8.681227999999999723e-01 5.244929999999999870e-01 5.510192000000000423e-01 7.555191999999999464e-01 2.774891999999999914e-01 4.123881999999999826e-01 4.821244000000000085e-01 -1.239001999999999899e-03 -4.342733999999999761e-01 3.423942999999999848e-01 9.166807000000000150e-01 1.163644999999999957e-01 2.034342000000000095e-01 4.742546999999999735e-01 -1.436232000000000064e-01 -1.132014999999999966e-01 2.138953999999999855e-02 -2.750686999999999993e-01 2.157785999999999871e-01 -2.128359999999999974e-01 1.796927000000000108e-01 -2.156733000000000122e-01 -3.605073999999999779e-01 1.307105000000000072e-01 -6.661960000000000104e-02 -2.032889999999999975e-01 -3.908442000000000166e-02 3.619044000000000150e-01 -4.061429999999999763e-01
-1.015495000000000009e-01 -3.653142000000000195e-02 -5.284834999999999949e-01 -4.062822999999999851e-01 -4.299853000000000147e-01 -1.415478000000000014e-01 1.981496000000000091e-01 -2.045652000000000026e-01 3.072483999999999771e-01 2.026678000000000091e-01 3.528274000000000132e-01 -1.216403999999999958e-01 -3.793032000000000070e-01 -4.234582000000000068e-01 -2.524927000000000143e-01 -2.302819999999999867e-01 2.098221999999999865e-01 -1.193858000000000003e-01 1.139667000000000041e-01 -2.485545000000000115e-01 -4.358232000000000217e-01 3.021336000000000022e-01 -3.892531000000000185e-01 2.283004999999999896e-01 4.334106999999999821e-01 -5.222469999999999890e-03 3.492727999999999944e-01 5.748936999999999520e-01 5.279137999999999886e-01 -9.683155999999999708e-02 4.024932999999999983e-01 6.767292000000000307e-01 1.169965000000000033e-01 4.735151000000000221e-01 9.728388999999999509e-01 -7.726789000000000400e-03 5.718782999999999506e-01 5.269673999999999747e-01 2.146830000000000127e-01 5.944401999999999742e-01 4.481192999999999982e-01 3.745303999999999855e-01 8.647167999999999521e-02 6.141489999999999450e-01 -1.150938999999999990e-01 1.726441000000000087e-02 8.953723000000000098e-01 -4.367023999999999732e-03 4.377156000000000102e-03 9.652877999999999459e-02 4.293084999999999818e-01 1.608787999999999885e-01 2.498360000000000025e-01 -2.929363000000000106e-02 2.204109999999999958e-01 4.762804999999999817e-02 -2.770735999999999755e-01 -9.775272000000000128e-02 -2.885807000000000233e-01 5.422825999999999480e-01 -1.379149000000000069e-01
-6.155348999999999959e-01 2.354105999999999976e-01 1.854413000000000034e-01 -3.678544999999999732e-02 2.168611000000000011e-01 -1.842436000000000074e-01 3.707631000000000121e-01 4.315498999999999863e-01 -1.466531000000000085e-02 -4.387432000000000137e-02 -1.751928000000000096e-01 -7.124766999999999628e-01 -1.581361000000000017e-01 1.412312000000000012e-01 -2.773382999999999821e-01 -3.624194000000000027e-01 3.167987000000000147e-03 -3.409644000000000008e-01 -1.006105000000000055e-01 -4.765740000000000254e-02 -1.249251000000000007e-02 7.546536000000000355e-01 1.759478999999999904e-01 -1.842218999999999940e-01 -2.058849000000000096e-01 -2.332422000000000106e-01 2.745117999999999725e-01 3.186047000000000184e-01 5.817660999999999666e-02 2.025348999999999899e-01 1.760070999999999997e-01 -1.464119000000000115e-01 3.323416000000000148e-01 3.013789999999999872e-02 5.370426999999999840e-01 8.101018999999999581e-02 4.640620999999999774e-01 3.249836999999999865e-01 5.297722999999999738e-01 -2.117439000000000127e-01 -5.707418999999999687e-02 -8.378536000000000317e-02 -2.230572999999999861e-01 6.775531000000000192e-01 -2.038781000000000065e-01 2.004490999999999912e-01 -1.335823999999999900e-01 -4.346863000000000254e-01 1.327394999999999986e-04 -2.118913000000000046e-01 -1.981308999999999987e-01 5.446319000000000160e-02 -1.063294000000000045e-01 1.017615999999999937e-01 1.411969999999999892e-01 5.747799000000000103e-01 -1.419381000000000115e-01 6.901211000000000428e-01 1.941705999999999988e-01 -2.581412000000000151e-01 -3.987905999999999951e-01
-2.678298000000000068e-01 2.870955000000000035e-01 9.238127999999999618e-02 -1.019591999999999998e-01 -2.072820999999999969e-01 -1.562540000000000040e-01 -1.867266999999999955e-01 2.851265000000000049e-01 -1.012612999999999985e-01 2.453781999999999908e-01 1.611186000000000007e-01 3.611815000000000164e-02 3.145169999999999910e-02 -2.445321000000000022e-01 4.610755000000000270e-01 -3.055724000000000218e-01 1.743976999999999888e-01 -6.761729999999999650e-03 3.633548999999999807e-01 -1.812651999999999874e-01 -2.880481999999999765e-01 5.216317999999999788e-01 -2.113251999999999908e-01 -1.690593999999999986e-01 5.528026999999999802e-01 -1.581043000000000032e-01 5.126749000000000445e-01 3.099902999999999964e-01 1.943677999999999899e-03 1.076672000000000073e+00 -3.715993000000000213e-01 1.516173000000000104e-01 -1.906172999999999895e-01 2.128172999999999870e-01 2.501492000000000160e-01 -4.171047999999999978e-01 1.432847999999999900e-01 2.788789999999999880e-01 1.771932999999999980e-01 -2.247078999999999882e-01 1.548761999999999917e-01 -1.514319000000000082e-01 -2.540943999999999980e-01 -2.168526000000000065e-01 9.238873000000000224e-02 -3.548112999999999961e-01 9.372998999999999914e-02 -3.972864999999999869e-01 2.297105000000000119e-01 4.869111999999999885e-01 -4.272974999999999968e-01 -1.570922999999999903e-01 1.036395000000000025e-02 6.204735999999999585e-01 3.725760000000000183e-02 3.442753000000000063e-01 2.909718000000000027e-01 -5.479173000000000515e-01 -2.905724999999999975e-02 -2.395530999999999910e-01 -2.205924999999999969e-01
4.400664000000000242e-01 -1.569471999999999881e-02 -6.295709999999999917e-01 1.909202999999999872e-01 -6.085742000000000235e-02 6.663185000000000358e-01 4.091445000000000221e-01 2.635063999999999740e-01 -4.980807999999999902e-01 -3.612244000000000010e-01 2.244045000000000067e-01 -5.449825999999999837e-01 -6.237133999999999734e-02 -7.305366000000000637e-02 5.593628000000000489e-01 3.128348000000000240e-01 -6.867924000000000251e-02 1.365686999999999873e-01 -4.700539000000000106e-02 -2.785661999999999860e-01 4.652276000000000189e-01 3.805744999999999822e-01 7.748689999999999745e-02 -1.964096999999999926e-01 -1.117358000000000066e-02 -1.145145999999999942e-01 3.108742999999999923e-01 2.176260999999999890e-01 2.825664999999999982e-01 -2.091540000000000066e-01 6.587486000000000175e-01 -2.467065999999999981e-01 2.076817999999999997e-01 8.326641999999999377e-02 1.096763999999999933e-01 -2.497815999999999925e-01 -3.038553999999999977e-01 1.186489000000000016e-01 1.344128999999999897e-03 2.681139000000000161e-01 -8.877133000000000385e-01 4.788618000000000041e-01 2.062943000000000138e-01 -3.114920999999999940e-01 5.023566000000000142e-02 5.518328999999999596e-01 9.529413000000000467e-02 4.438457000000000097e-01 4.793664999999999732e-01 1.177224999999999938e-01 2.207649999999999890e-01 1.700871999999999939e-01 3.125072000000000006e-03 9.629754999999999565e-02 -4.957268000000000091e-02 1.717063000000000061e-01 -6.892768000000000228e-01 -4.585848000000000146e-01 -1.488236000000000003e-01 5.299312000000000467e-01 -1.948137000000000063e-01
-3.468440999999999885e-01 2.698168000000000233e-01 3.211280000000000245e-01 1.309992000000000101e-01 2.276987000000000108e-02 3.485140999999999933e-01 -5.162879000000000218e-01 -1.284275000000000000e-01 1.575197000000000125e-01 3.400089000000000028e-01 -5.578218000000000343e-01 2.187937000000000076e-01 -2.140611000000000042e-01 3.241128000000000065e-02 2.094769000000000145e-02 3.840443000000000329e-02 -1.774506999999999890e-01 -9.213631999999999378e-02 6.501063999999999454e-02 -6.052368999999999805e-02 9.122041000000000177e-02 2.894966999999999957e-01 2.617643000000000053e-01 -2.563386000000000275e-01 1.296489999999999865e-01 2.623578999999999772e-01 3.043784999999999963e-01 1.857142999999999988e-01 4.250933000000000073e-01 4.214759000000000144e-01 1.177332999999999991e-01 5.679486999999999730e-01 2.929836000000000107e-01 5.115098999999999618e-01 -9.428999999999999881e-02 2.987583999999999795e-01 2.170914999999999928e-01 1.609887999999999875e-01 4.886208000000000218e-01 6.839406000000000652e-02 2.477613999999999927e-01 2.422495000000000065e-01 4.228158000000000194e-01 -3.004271000000000025e-02 2.641221000000000263e-01 -2.444070999999999882e-01 -1.749632999999999883e-01 2.667683000000000137e-01 -2.598715999999999804e-01 -3.324227000000000154e-01 -6.451616999999999491e-01 2.636908000000000030e-01 5.193335000000000312e-02 -4.230435000000000167e-01 7.434434999999999655e-03 -1.163889000000000035e-01 -2.547213999999999867e-01 3.295888000000000151e-01 1.776994000000000073e-01 -2.097207000000000099e-01 -1.756467999999999918e-01
